n12513613	0
n00453935	1
n07624466	2
n04143140	3
n03792048	4
n01782209	5
n04505036	6
n07577538	7
n11552133	8
n00288000	9
n09781650	10
n12526516	11
n12289433	12
n12629666	13
n04577293	14
n01351170	15
n03007130	16
n07828642	17
n02011281	18
n02642644	19
n00467719	20
n12708654	21
n04012084	22
n10162194	23
n01319001	24
n00442981	25
n03275681	26
n10712229	27
n12495146	28
n02892767	29
n09918867	30
n02110341	31
n07890068	32
n10763383	33
n03172965	34
n09825096	35
n03878963	36
n04064401	37
n03290195	38
n11950345	39
n02883344	40
n04076713	41
n09767197	42
n12762896	43
n12529500	44
n07590611	45
n02859184	46
n12606545	47
n04111190	48
n07697537	49
n01482330	50
n07683786	51
n12204032	52
n12201580	53
n04050600	54
n10415037	55
n11863467	56
n03171228	57
n04311595	58
n04543158	59
n13906669	60
n01623706	61
n10777299	62
n02441326	63
n02995998	64
n01662784	65
n01529672	66
n01572782	67
n11689483	68
n02206270	69
n09631129	70
n03765561	71
n09617161	72
n13201969	73
n03054901	74
n10249459	75
n12577895	76
n03623338	77
n01987727	78
n01855188	79
n10444194	80
n04962062	81
n02797692	82
n04285008	83
n02081571	84
n09929298	85
n10399130	86
n10266848	87
n02796995	88
n08256735	89
n04090263	90
n11616852	91
n01959985	92
n04039848	93
n07682624	94
n09437454	95
n03978421	96
n12339526	97
n10562283	98
n03256166	99
n02848523	100
n10595164	101
n03454211	102
n03314608	103
n02977438	104
n02291748	105
n01894207	106
n02109811	107
n11868814	108
n07897200	109
n04520170	110
n03150795	111
n12143676	112
n10067600	113
n07902121	114
n12582846	115
n07744057	116
n03418242	117
n13233727	118
n11608250	119
n13140049	120
n07572353	121
n12001294	122
n07883384	123
n02949542	124
n01801479	125
n03261776	126
n03034663	127
n10212501	128
n07907943	129
n12635151	130
n03541393	131
n01549641	132
n12576323	133
n10750188	134
n02041875	135
n12335664	136
n02279257	137
n04209811	138
n03250588	139
n04613015	140
n04286128	141
n07733712	142
n04160372	143
n06276697	144
n04124202	145
n12506181	146
n03524574	147
n10027246	148
n13121104	149
n10612210	150
n10311661	151
n02992529	152
n10728998	153
n01317541	154
n02658079	155
n02053425	156
n09622302	157
n01650690	158
n10486561	159
n12849061	160
n11703669	161
n02878222	162
n07594737	163
n03985232	164
n01922717	165
n00445802	166
n09816771	167
n12670758	168
n02037464	169
n04056932	170
n03346135	171
n11757851	172
n01624833	173
n12117017	174
n01753488	175
n02509197	176
n02299378	177
n11547562	178
n12722071	179
n10296176	180
n02600798	181
n10419472	182
n03492250	183
n10708454	184
n12766869	185
n02252226	186
n01740551	187
n02581108	188
n12381511	189
n12662772	190
n09215437	191
n12051514	192
n07651025	193
n11653904	194
n03890514	195
n10513823	196
n12401335	197
n03437581	198
n07766173	199
n12407079	200
n03859280	201
n04441528	202
n03455355	203
n10177150	204
n09814660	205
n00007846	206
n07752264	207
n10512708	208
n01605630	209
n02080415	210
n04377057	211
n07557165	212
n03945615	213
n10655594	214
n04478512	215
n02984061	216
n01859325	217
n12463743	218
n02049532	219
n01861778	220
n02811936	221
n03956922	222
n04570815	223
n10015897	224
n12397431	225
n03588951	226
n12940226	227
n10009484	228
n04112752	229
n02355227	230
n10539160	231
n11722342	232
n02257715	233
n12937130	234
n03495671	235
n12564613	236
n01976957	237
n02256656	238
n00441824	239
n02865931	240
n07827130	241
n12597798	242
n02205219	243
n02480855	244
n07806221	245
n12431434	246
n12023407	247
n07560652	248
n07723330	249
n10646780	250
n04425977	251
n02416104	252
n03896233	253
n02525703	254
n02881757	255
n03761084	256
n12522188	257
n07678729	258
n01615121	259
n07594840	260
n12409231	261
n12714254	262
n02217563	263
n03536122	264
n02443114	265
n07903208	266
n01590220	267
n12318378	268
n04014297	269
n12449526	270
n04455250	271
n03237416	272
n04293119	273
n02866578	274
n00447073	275
n09638875	276
n04080454	277
n03915437	278
n02276749	279
n11630489	280
n12078172	281
n12321873	282
n10522035	283
n09608709	284
n03113835	285
n02403454	286
n12403513	287
n03379204	288
n03222722	289
n04113765	290
n13066129	291
n03567066	292
n09764900	293
n04072551	294
n12761284	295
n07769306	296
n02761834	297
n11892637	298
n02757462	299
n10318293	300
n04379243	301
n07817465	302
n02396427	303
n02099997	304
n04314914	305
n13875392	306
n03824381	307
n12884100	308
n02390015	309
n12779603	310
n03395859	311
n12604845	312
n02703275	313
n12291959	314
n12282527	315
n11705171	316
n01905661	317
n02033561	318
n03540267	319
n10237069	320
n05244934	321
n09607630	322
n03724756	323
n01882714	324
n07772788	325
n10524223	326
n02709367	327
n02776631	328
n12036939	329
n07823814	330
n10688811	331
n04364545	332
n09845401	333
n04247011	334
n03970156	335
n03224893	336
n02700064	337
n04529962	338
n09632274	339
n03473817	340
n03457451	341
n07814925	342
n03075768	343
n04449966	344
n10518349	345
n14973585	346
n07711799	347
n02834778	348
n04361095	349
n07684164	350
n04605726	351
n01314781	352
n04467665	353
n04566257	354
n01575745	355
n01769347	356
n07642471	357
n03665366	358
n04280970	359
n01805801	360
n12227658	361
n02861509	362
n04157099	363
n12125183	364
n02570838	365
n01754533	366
n10175725	367
n01982068	368
n12765846	369
n01670092	370
n07822323	371
n07710283	372
n01958435	373
n09779790	374
n01622120	375
n12193334	376
n02876657	377
n09863936	378
n03065424	379
n01578575	380
n02985137	381
n02454379	382
n01653223	383
n01936391	384
n02341475	385
n03772269	386
n02991048	387
n04055861	388
n07923748	389
n11659248	390
n12405714	391
n02196896	392
n03112719	393
n01979526	394
n03309465	395
n10070711	396
n02652668	397
n11721642	398
n09796809	399
n02174355	400
n11735570	401
n13223090	402
n07569423	403
n02428349	404
n09876701	405
n11885856	406
n02520147	407
n02067240	408
n12806732	409
n02970685	410
n11739978	411
n03387653	412
n03703590	413
n11644046	414
n04243941	415
n01618503	416
n03278248	417
n02963821	418
n12699922	419
n02432291	420
n02395694	421
n02064338	422
n01933988	423
n00442847	424
n10297367	425
n07889274	426
n04558804	427
n04254777	428
n03686470	429
n12688716	430
n10526534	431
n04506289	432
n01811909	433
n07577657	434
n02414578	435
n03209910	436
n03542333	437
n11786131	438
n12926689	439
n12946849	440
n01884834	441
n02503517	442
n12266217	443
n02803349	444
n13108841	445
n02055803	446
n01459791	447
n12842887	448
n12174521	449
n02266050	450
n12065316	451
n12101870	452
n02536165	453
n12560282	454
n10382825	455
n13052931	456
n10236842	457
n11965627	458
n12665271	459
n12698435	460
n07904395	461
n03402941	462
n12835331	463
n03132261	464
n01799302	465
n09792555	466
n10402824	467
n02342885	468
n11832214	469
n12161285	470
n03753077	471
n12837803	472
n02596067	473
n10612373	474
n04285146	475
n09938991	476
n13077295	477
n09815790	478
n02123597	479
n02344528	480
n03036866	481
n12692714	482
n07606764	483
n10465451	484
n03064935	485
n09637339	486
n02968473	487
n04021798	488
n01684741	489
n03151077	490
n13172923	491
n12730370	492
n02338901	493
n04110654	494
n03488188	495
n02951358	496
n02325884	497
n07809368	498
n11991549	499
n03459775	500
n12557681	501
n07783827	502
n10228592	503
n02402175	504
n03291551	505
n04536866	506
n05448704	507
n02025043	508
n03967396	509
n07921455	510
n02920503	511
n02004855	512
n02701002	513
n12748248	514
n10530959	515
n13122364	516
n09971839	517
n00017222	518
n03616428	519
n12666369	520
n02032222	521
n10055410	522
n10715030	523
n02286089	524
n02794779	525
n01664369	526
n07733847	527
n03507241	528
n10439851	529
n09264803	530
n02988486	531
n12570394	532
n09763784	533
n03222516	534
n04412416	535
n03437430	536
n02515713	537
n02739889	538
n03634034	539
n03351979	540
n02950256	541
n15091846	542
n10091564	543
n12918609	544
n09987239	545
n03824284	546
n07600696	547
n09793141	548
n11772408	549
n03268790	550
n03220692	551
n03325088	552
n12411461	553
n03142679	554
n13200986	555
n03027250	556
n12974987	557
n10117017	558
n02590987	559
n03390983	560
n03851341	561
n01732244	562
n02453108	563
n02423022	564
n03283827	565
n01483522	566
n02213107	567
n11764478	568
n12847008	569
n12598027	570
n04173172	571
n03060728	572
n07713895	573
n14900184	574
n02130308	575
n01792640	576
n02696165	577
n04208210	578
n02401031	579
n09753348	580
n04290259	581
n09828403	582
n02189363	583
n12583855	584
n03285912	585
n12759273	586
n02593019	587
n12950126	588
n04105068	589
n02599557	590
n02361337	591
n02817031	592
n02272286	593
n12158798	594
n07810907	595
n10374849	596
n03563710	597
n02074726	598
n01648356	599
n02549989	600
n07906284	601
n01645466	602
n03114839	603
n03126385	604
n10435988	605
n12621619	606
n01585121	607
n04365751	608
n03239726	609
n04471315	610
n09800964	611
n02831595	612
n03746330	613
n03113657	614
n10722575	615
n02903204	616
n10104756	617
n09262690	618
n02747177	619
n03343354	620
n01674464	621
n02208280	622
n10047459	623
n12204175	624
n02112497	625
n07611358	626
n02731398	627
n03327234	628
n11722466	629
n03177165	630
n12008252	631
n02891188	632
n03035252	633
n03478907	634
n07696527	635
n01542786	636
n03197446	637
n12727729	638
n11874081	639
n09453008	640
n13178284	641
n07813107	642
n03484576	643
n12561309	644
n07840804	645
n03781787	646
n02460451	647
n03888257	648
n01871875	649
n12342299	650
n02918595	651
n02802215	652
n09731571	653
n02015554	654
n10781236	655
n04524594	656
n03426574	657
n03241093	658
n12745564	659
n12024690	660
n02087551	661
n12793886	662
n02070430	663
n01935395	664
n12578626	665
n02522399	666
n07927931	667
n04089152	668
n09826204	669
n04317420	670
n07748753	671
n03525074	672
n02902816	673
n03963483	674
n02018795	675
n01558149	676
n12446519	677
n10036929	678
n04469003	679
n12603449	680
n03365592	681
n03940256	682
n02169974	683
n04154152	684
n12545232	685
n10468750	686
n01643896	687
n02955767	688
n01839598	689
n02825442	690
n04524313	691
n04402984	692
n02833793	693
n03386011	694
n09247410	695
n03288003	696
n02269340	697
n10000787	698
n10693824	699
n04187061	700
n10369699	701
n03469175	702
n07726230	703
n12523141	704
n13062421	705
n10569179	706
n11823756	707
n07742704	708
n12655869	709
n12903503	710
n03877472	711
n03896103	712
n07765208	713
n01748906	714
n11614713	715
n12637485	716
n10107303	717
n01556514	718
n02353861	719
n12803754	720
n11623105	721
n04217882	722
n03175604	723
n12285049	724
n03046257	725
n13174670	726
n10143172	727
n05245192	728
n03992703	729
n02931417	730
n10525436	731
n01910252	732
n01859496	733
n12593341	734
n09923673	735
n12843557	736
n01616318	737
n03295928	738
n02278024	739
n01639765	740
n13134947	741
n12726670	742
n02378415	743
n12969425	744
n02730265	745
n07575510	746
n02339376	747
n10769321	748
n12159804	749
n03706415	750
n07725531	751
n02297294	752
n03433247	753
n03796605	754
n04447028	755
n11877283	756
n04405540	757
n04540761	758
n01773549	759
n11915658	760
n03326073	761
n12462582	762
n11609475	763
n03472232	764
n01835276	765
n03372029	766
n12667406	767
n12027222	768
n09760609	769
n11779300	770
n04192698	771
n10395390	772
n03724870	773
n09711132	774
n09738400	775
n12634429	776
n04459362	777
n07737081	778
n12005656	779
n07886057	780
n13032115	781
n12288823	782
n10305802	783
n04068601	784
n11649878	785
n04275661	786
n01964441	787
n02973236	788
n03156405	789
n04970916	790
n12822955	791
n02584449	792
n09627906	793
n15090742	794
n04098513	795
n04294614	796
n12447121	797
n12188289	798
n07712382	799
n10324560	800
n10565502	801
n13033577	802
n09824135	803
n12875269	804
n12774299	805
n12172364	806
n02835915	807
n13085113	808
n02571810	809
n00464894	810
n06272290	811
n02065026	812
n07816296	813
n09616922	814
n02481823	815
n02218713	816
n07805254	817
n02792552	818
n10154013	819
n03666362	820
n02226821	821
n02350989	822
n04181718	823
n04508489	824
n09289331	825
n07823951	826
n03160309	827
n09827363	828
n10370381	829
n12939479	830
n12810595	831
n12118414	832
n03128519	833
n10726031	834
n10580030	835
n03654826	836
n03496612	837
n12817464	838
n03236423	839
n02742468	840
n04315948	841
n10068234	842
n07753980	843
n04547592	844
n12515711	845
n07843775	846
n12477583	847
n02488291	848
n03791235	849
n03051540	850
n01787835	851
n02650541	852
n12821505	853
n02424085	854
n02148512	855
n11967744	856
n12886600	857
n07905038	858
n01548301	859
n02019929	860
n12685831	861
n04459610	862
n10362003	863
n02586543	864
n12137120	865
n03885535	866
n04434932	867
n10418101	868
n02648625	869
n02865665	870
n02900705	871
n01771417	872
n11985053	873
n03989898	874
n09416076	875
n03955296	876
n12012253	877
n03836451	878
n01936671	879
n12742290	880
n01518878	881
n07914006	882
n04304375	883
n10247880	884
n03577090	885
n04128499	886
n07906111	887
n01448951	888
n11968704	889
n03347472	890
n03070193	891
n02240517	892
n02460817	893
n02641379	894
n03001282	895
n12131405	896
n04562122	897
n04604806	898
n02970534	899
n07847198	900
n11976170	901
n12594989	902
n03033362	903
n02901481	904
n07767344	905
n11949402	906
n12954353	907
n11552386	908
n12582665	909
n04073948	910
n09815455	911
n02564720	912
n02102605	913
n10228278	914
n03079136	915
n04205318	916
n04249415	917
n04222847	918
n12437769	919
n02830157	920
n01822602	921
n02120997	922
n02381460	923
n09796974	924
n12319204	925
n04487081	926
n03719343	927
n07902336	928
n12539074	929
n13906484	930
n03988170	931
n10659762	932
n11978233	933
n01940736	934
n12506341	935
n10207169	936
n07573696	937
n03623556	938
n12565912	939
n03180504	940
n01752165	941
n04266162	942
n10215623	943
n01586374	944
n12284262	945
n03597317	946
n10678937	947
n10705615	948
n12031139	949
n13040303	950
n02761696	951
n03404900	952
n02136103	953
n02977619	954
n13865483	955
n03859495	956
n01549430	957
n10401331	958
n04209613	959
n07723177	960
n04489817	961
n10024362	962
n07768423	963
n03903868	964
n02764398	965
n02490219	966
n00467995	967
n00480993	968
n02394477	969
n04565375	970
n12574470	971
n01539925	972
n02965300	973
n09629246	974
n10055730	975
n10431122	976
n03443912	977
n03422589	978
n02195526	979
n02011460	980
n03643907	981
n12087961	982
n01567678	983
n12395068	984
n03585875	985
n12312728	986
n02981911	987
n01987545	988
n02306433	989
n07643306	990
n10384496	991
n09842047	992
n01692864	993
n02203592	994
n04563204	995
n10224578	996
n07577374	997
n07824702	998
n04091097	999
n11807979	1000
n03545961	1001
n11737534	1002
n10599806	1003
n03616763	1004
n02850732	1005
n11709674	1006
n02536456	1007
n02928413	1008
n12903367	1009
n03738472	1010
n01971094	1011
n02111626	1012
n09439213	1013
n02804515	1014
n06267145	1015
n03020692	1016
n03294048	1017
n03794136	1018
n10317007	1019
n01321456	1020
n10340312	1021
n10592049	1022
n04464852	1023
n10404426	1024
n11805255	1025
n13862780	1026
n01574045	1027
n03475823	1028
n12587132	1029
n03596285	1030
n03701391	1031
n04568069	1032
n03842156	1033
n12321669	1034
n04597066	1035
n09780828	1036
n10033663	1037
n03751590	1038
n04157320	1039
n04217546	1040
n02864593	1041
n08640739	1042
n02559862	1043
n03401721	1044
n11878283	1045
n01918744	1046
n02003204	1047
n09846755	1048
n12034141	1049
n02795670	1050
n12357485	1051
n11879722	1052
n12305475	1053
n02062017	1054
n12165384	1055
n03490884	1056
n01447331	1057
n02117135	1058
n03809686	1059
n01754370	1060
n04099969	1061
n02433925	1062
n03391770	1063
n12505253	1064
n10260706	1065
n02028175	1066
n03658858	1067
n01314910	1068
n10667709	1069
n12840749	1070
n02933462	1071
n01965889	1072
n02627835	1073
n12430198	1074
n02340186	1075
n07565259	1076
n01838598	1077
n03430959	1078
n01439121	1079
n03032252	1080
n11720353	1081
n04959672	1082
n02145424	1083
n01389507	1084
n12470512	1085
n02023992	1086
n02954340	1087
n01745902	1088
n03357081	1089
n13100677	1090
n07802417	1091
n11748002	1092
n03499468	1093
n07739125	1094
n12661045	1095
n07822518	1096
n12162758	1097
n02583567	1098
n03237639	1099
n02051474	1100
n12641931	1101
n03579538	1102
n02458135	1103
n02873839	1104
n02935658	1105
n07925808	1106
n12173069	1107
n01457082	1108
n03331599	1109
n03516996	1110
n03863923	1111
n02066245	1112
n01914163	1113
n03813176	1114
n04257986	1115
n13894434	1116
n02096756	1117
n02821627	1118
n11953884	1119
n02732072	1120
n07752109	1121
n12542240	1122
n03204306	1123
n02529772	1124
n12941536	1125
n03744840	1126
n07769584	1127
n13207094	1128
n01603600	1129
n09877951	1130
n10155222	1131
n12020507	1132
n02026629	1133
n13150894	1134
n10611613	1135
n02831724	1136
n07560422	1137
n01786646	1138
n09952163	1139
n04552696	1140
n12334293	1141
n02305407	1142
n07556872	1143
n03456186	1144
n12546420	1145
n12392070	1146
n02823124	1147
n09505153	1148
n04049405	1149
n02472293	1150
n12160490	1151
n01802721	1152
n04600486	1153
n10523341	1154
n10628644	1155
n13879320	1156
n03708962	1157
n07722052	1158
n03970363	1159
n03646296	1160
n02945161	1161
n10582746	1162
n12969131	1163
n12282737	1164
n07803992	1165
n01797020	1166
n09942970	1167
n12878169	1168
n03138669	1169
n03941684	1170
n01550761	1171
n01623425	1172
n02838014	1173
n10062042	1174
n11884384	1175
n07849336	1176
n12887293	1177
n02653786	1178
n03488438	1179
n10576223	1180
n03485794	1181
n03079230	1182
n03322940	1183
n10740732	1184
n12541157	1185
n12648196	1186
n04295881	1187
n08559155	1188
n00450866	1189
n09951070	1190
n09626238	1191
n10200781	1192
n12844939	1193
n12268246	1194
n04357121	1195
n07709701	1196
n03847823	1197
n10148305	1198
n04509592	1199
n01622352	1200
n13144084	1201
n02626762	1202
n03521076	1203
n02987492	1204
n01555305	1205
n04555897	1206
n02671780	1207
n03601638	1208
n10671898	1209
n01697178	1210
n13177048	1211
n02473307	1212
n02397744	1213
n03100897	1214
n02176261	1215
n03116767	1216
n12285369	1217
n02181724	1218
n04592099	1219
n04313220	1220
n07886176	1221
n03583621	1222
n10464542	1223
n12146311	1224
n03163222	1225
n07751004	1226
n01729977	1227
n02807731	1228
n02183857	1229
n12281241	1230
n01730812	1231
n10369317	1232
n03772077	1233
n10154186	1234
n04086273	1235
n07726386	1236
n00021265	1237
n10198832	1238
n09267854	1239
n01998741	1240
n10634990	1241
n02377480	1242
n06276902	1243
n03336839	1244
n02410509	1245
n10098245	1246
n07711569	1247
n12698027	1248
n07766409	1249
n03193597	1250
n10521100	1251
n07566340	1252
n03696065	1253
n02585872	1254
n02268148	1255
n02341288	1256
n07755089	1257
n03457686	1258
n11822300	1259
n12130549	1260
n07764315	1261
n04110439	1262
n02528163	1263
n01582856	1264
n12940609	1265
n10341955	1266
n02887209	1267
n11750508	1268
n02237868	1269
n13171210	1270
n04191150	1271
n02970408	1272
n03082807	1273
n10380126	1274
n02656670	1275
n04965179	1276
n01455778	1277
n10328941	1278
n09606009	1279
n04437953	1280
n07772413	1281
n02461830	1282
n02080146	1283
n12665048	1284
n12707781	1285
n02796623	1286
n03422072	1287
n13136316	1288
n03171356	1289
n04608567	1290
n10544748	1291
n01736796	1292
n12174311	1293
n02398521	1294
n03071552	1295
n03492542	1296
n10648696	1297
n03852688	1298
n02131653	1299
n12711182	1300
n10290422	1301
n01390123	1302
n12507379	1303
n01821203	1304
n01595624	1305
n12864160	1306
n02395406	1307
n12049282	1308
n02449183	1309
n12142085	1310
n10362319	1311
n07686873	1312
n03538037	1313
n12926480	1314
n03768132	1315
n12700357	1316
n04463679	1317
n10793570	1318
n02424305	1319
n10213429	1320
n01538955	1321
n11756669	1322
n09951274	1323
n12854600	1324
n02103841	1325
n02228341	1326
n12763529	1327
n03481521	1328
n02357911	1329
n04359589	1330
n03844045	1331
n02684649	1332
n12056990	1333
n04531098	1334
n03802007	1335
n03762434	1336
n07731952	1337
n10502046	1338
n09813219	1339
n02757810	1340
n01490112	1341
n04229959	1342
n07725376	1343
n01533339	1344
n04594489	1345
n03132076	1346
n12373100	1347
n01630284	1348
n02883205	1349
n02731629	1350
n10782471	1351
n04068441	1352
n01855032	1353
n12638753	1354
n02448885	1355
n03249569	1356
n02165877	1357
n12131550	1358
n02887489	1359
n03063689	1360
n04347119	1361
n12796385	1362
n11992806	1363
n07712559	1364
n10384392	1365
n01997119	1366
n03627232	1367
n11878101	1368
n02540412	1369
n12249542	1370
n12510774	1371
n07910656	1372
n02002075	1373
n14919819	1374
n01794158	1375
n05238282	1376
n03510583	1377
n03064758	1378
n03067339	1379
n10488016	1380
n04257790	1381
n02761557	1382
n02597367	1383
n01619536	1384
n12164881	1385
n02362194	1386
n11652217	1387
n07886317	1388
n03655720	1389
n07825972	1390
n02404906	1391
n11907689	1392
n03773035	1393
n10435716	1394
n11611758	1395
n02300173	1396
n03929202	1397
n01708106	1398
n02607072	1399
n12561594	1400
n07723039	1401
n10702615	1402
n11635830	1403
n01741943	1404
n12712626	1405
n02921884	1406
n12799776	1407
n11634736	1408
n07925966	1409
n03501614	1410
n03967562	1411
n13125117	1412
n03882611	1413
n01674216	1414
n12793695	1415
n09701148	1416
n02047260	1417
n04332243	1418
n03257586	1419
n02483092	1420
n10612518	1421
n02233338	1422
n09769929	1423
n12360108	1424
n12401684	1425
n09833997	1426
n03315805	1427
n02872333	1428
n09872066	1429
n02685365	1430
n02384858	1431
n07936263	1432
n03913343	1433
n07762114	1434
n10117267	1435
n11973341	1436
n09902954	1437
n02804610	1438
n11947251	1439
n09774167	1440
n11722621	1441
n01722998	1442
n12446200	1443
n04587648	1444
n03511175	1445
n04236377	1446
n03228016	1447
n02950018	1448
n07590320	1449
n02068541	1450
n01726692	1451
n03557360	1452
n03897943	1453
n09403734	1454
n10405694	1455
n12778605	1456
n04305323	1457
n02055658	1458
n03473465	1459
n02122298	1460
n04250850	1461
n03381776	1462
n10265801	1463
n12265394	1464
n01610955	1465
n03707766	1466
n10227266	1467
n01544208	1468
n04960277	1469
n02739668	1470
n12871272	1471
n01321579	1472
n01737875	1473
n13061704	1474
n02471300	1475
n02496913	1476
n11877473	1477
n01653509	1478
n00452293	1479
n02655020	1480
n03001627	1481
n12890685	1482
n07817599	1483
n03412906	1484
n04478657	1485
n13133613	1486
n02172182	1487
n12112918	1488
n12472024	1489
n12387839	1490
n02323902	1491
n04125257	1492
n09843602	1493
n01534433	1494
n12634211	1495
n02168699	1496
n12805146	1497
n03791053	1498
n02772554	1499
n07942152	1500
n03235796	1501
n07891433	1502
n02246011	1503
n12290748	1504
n03530910	1505
n01324305	1506
n01680478	1507
n01397114	1508
n04495843	1509
n02032355	1510
n02636170	1511
n12709901	1512
n01983481	1513
n01773797	1514
n10238272	1515
n04365484	1516
n12271643	1517
n12477747	1518
n04194289	1519
n10588724	1520
n03908204	1521
n09861287	1522
n00463543	1523
n07813324	1524
n04554211	1525
n01935176	1526
n12592058	1527
n02565072	1528
n02443484	1529
n11758799	1530
n09890749	1531
n02231052	1532
n03763968	1533
n09472413	1534
n12822769	1535
n07760859	1536
n12727960	1537
n03350204	1538
n01532325	1539
n12335483	1540
n12322099	1541
n03111690	1542
n02846141	1543
n07903101	1544
n02127808	1545
n12884260	1546
n12466727	1547
n03037709	1548
n07560542	1549
n04507155	1550
n02948557	1551
n11612349	1552
n04140064	1553
n03803116	1554
n03948459	1555
n02251233	1556
n04381994	1557
n12227909	1558
n07566863	1559
n03085333	1560
n07585208	1561
n01500854	1562
n03455488	1563
n07708512	1564
n09409512	1565
n01746191	1566
n03870105	1567
n10321126	1568
n03346455	1569
n01755740	1570
n12729315	1571
n04364827	1572
n03598151	1573
n10186774	1574
n03666591	1575
n04232153	1576
n07556970	1577
n13003522	1578
n04566561	1579
n12320627	1580
n07593774	1581
n12327846	1582
n07805006	1583
n08644045	1584
n01546039	1585
n10529231	1586
n03788195	1587
n04192858	1588
n04969242	1589
n02014237	1590
n12870535	1591
n11645914	1592
n12342498	1593
n12987056	1594
n02487347	1595
n10322238	1596
n00464651	1597
n01969726	1598
n04370774	1599
n07816052	1600
n09720702	1601
n03365374	1602
n09910222	1603
n01801088	1604
n12269652	1605
n02556846	1606
n07803895	1607
n02775483	1608
n01841102	1609
n03273061	1610
n01960459	1611
n02507649	1612
n11723770	1613
n04550676	1614
n01747285	1615
n03378005	1616
n04376400	1617
n01809752	1618
n12121033	1619
n11991263	1620
n01789740	1621
n10022908	1622
n09810166	1623
n12622875	1624
n03769881	1625
n02793495	1626
n10763245	1627
n02687821	1628
n03376595	1629
n12402840	1630
n07822687	1631
n02783994	1632
n12118661	1633
n04416901	1634
n02489589	1635
n12166793	1636
n12648045	1637
n04033287	1638
n11873182	1639
n11644226	1640
n07753743	1641
n10576316	1642
n02036053	1643
n02417534	1644
n07745661	1645
n09676884	1646
n11816121	1647
n03706653	1648
n12515925	1649
n07756641	1650
n02578454	1651
n01589718	1652
n11970586	1653
n03459914	1654
n04467307	1655
n07612632	1656
n02973017	1657
n01653773	1658
n03928589	1659
n12356023	1660
n11915899	1661
n02644113	1662
n12746884	1663
n03005619	1664
n07766530	1665
n02566109	1666
n02359324	1667
n02253715	1668
n12331066	1669
n02738535	1670
n11800236	1671
n01958346	1672
n03496892	1673
n10437014	1674
n03414162	1675
n12603273	1676
n07730406	1677
n03387323	1678
n11628456	1679
n02670382	1680
n10053808	1681
n10297531	1682
n10514429	1683
n04202417	1684
n03091907	1685
n02749169	1686
n03236217	1687
n02508021	1688
n07697825	1689
n11990627	1690
n04509417	1691
n12012111	1692
n13194918	1693
n04350905	1694
n03963645	1695
n01662622	1696
n03846234	1697
n09305031	1698
n02402425	1699
n02913152	1700
n04395875	1701
n07748912	1702
n02708224	1703
n02248510	1704
n07762244	1705
n12223160	1706
n03817647	1707
n03231160	1708
n09818022	1709
n12548804	1710
n03519081	1711
n02341974	1712
n09930876	1713
n04959061	1714
n02758960	1715
n07596684	1716
n03842377	1717
n10727016	1718
n04096848	1719
n10271677	1720
n13148384	1721
n03800933	1722
n04197391	1723
n03365991	1724
n04103918	1725
n10498699	1726
n03042829	1727
n04242704	1728
n00479887	1729
n10551576	1730
n04267577	1731
n01848123	1732
n03950899	1733
n03542860	1734
n11910271	1735
n02782778	1736
n10556518	1737
n04062644	1738
n02338449	1739
n07719839	1740
n01840412	1741
n02236896	1742
n13208705	1743
n03630262	1744
n01985797	1745
n11652376	1746
n05449959	1747
n02491107	1748
n10112129	1749
n12248574	1750
n02325366	1751
n03593526	1752
n02125311	1753
n04340935	1754
n10387324	1755
n03918480	1756
n01625562	1757
n04236001	1758
n03714235	1759
n02193163	1760
n11694664	1761
n02075612	1762
n09625401	1763
n01494475	1764
n11713370	1765
n03218198	1766
n06274092	1767
n10499631	1768
n02034661	1769
n02954163	1770
n03354903	1771
n03816136	1772
n03156071	1773
n04044498	1774
n04033995	1775
n02687172	1776
n12464476	1777
n03676483	1778
n02630739	1779
n10138369	1780
n01910747	1781
n02574910	1782
n01458842	1783
n03963028	1784
n12158443	1785
n01775062	1786
n12708293	1787
n02044178	1788
n12816508	1789
n12134025	1790
n04350458	1791
n03212811	1792
n03043274	1793
n02519862	1794
n11799732	1795
n11855274	1796
n01984695	1797
n01792955	1798
n03877845	1799
n03578656	1800
n02488702	1801
n02650050	1802
n01694709	1803
n07707451	1804
n02186153	1805
n12772753	1806
n07857731	1807
n03679384	1808
n10205457	1809
n10419047	1810
n03633091	1811
n03561169	1812
n04435870	1813
n10712690	1814
n02323449	1815
n13138658	1816
n09770179	1817
n11601177	1818
n07841037	1819
n04057047	1820
n10803031	1821
n09206985	1822
n01438208	1823
n10632576	1824
n10335246	1825
n09610255	1826
n12296432	1827
n02853016	1828
n08494231	1829
n02128925	1830
n11889205	1831
n07461050	1832
n07643981	1833
n02646667	1834
n02089555	1835
n02916936	1836
n10409752	1837
n13183489	1838
n12108871	1839
n11819509	1840
n03718458	1841
n03688943	1842
n09841188	1843
n09835506	1844
n01385330	1845
n10542888	1846
n03007591	1847
n01671125	1848
n01320872	1849
n02354162	1850
n12408077	1851
n03553248	1852
n09758885	1853
n01562265	1854
n10354265	1855
n03013850	1856
n04384593	1857
n03980026	1858
n01678657	1859
n11647306	1860
n02799175	1861
n01500091	1862
n07824988	1863
n07697100	1864
n04309348	1865
n12909421	1866
n10146927	1867
n12159555	1868
n12552309	1869
n09893191	1870
n03575958	1871
n01316422	1872
n10095420	1873
n13007034	1874
n01925695	1875
n03899100	1876
n10074841	1877
n02326432	1878
n02146700	1879
n04234455	1880
n11736694	1881
n09937903	1882
n03175189	1883
n01645776	1884
n13206178	1885
n03936269	1886
n12636224	1887
n05526957	1888
n03191776	1889
n01732789	1890
n02767433	1891
n02123242	1892
n07718747	1893
n02272552	1894
n03051249	1895
n07770180	1896
n03525454	1897
n11924014	1898
n02512053	1899
n02824448	1900
n04395332	1901
n08640531	1902
n03281145	1903
n10245507	1904
n11955896	1905
n01832167	1906
n10791890	1907
n12868019	1908
n12554526	1909
n12761702	1910
n10105733	1911
n03625943	1912
n02562315	1913
n03085602	1914
n04408871	1915
n02922159	1916
n12532564	1917
n01852142	1918
n12733647	1919
n07856270	1920
n11805956	1921
n09857007	1922
n11655592	1923
n10283170	1924
n02601921	1925
n12602262	1926
n09804230	1927
n03175081	1928
n09621232	1929
n10284064	1930
n03854815	1931
n07574923	1932
n02299846	1933
n07729225	1934
n10508710	1935
n01537544	1936
n10674130	1937
n03744684	1938
n03214253	1939
n03730893	1940
n12578916	1941
n02288789	1942
n04072193	1943
n07723753	1944
n02900160	1945
n03103128	1946
n04367480	1947
n09927451	1948
n01911839	1949
n10676569	1950
n07769731	1951
n02419796	1952
n02038993	1953
n09760913	1954
n02167151	1955
n12939104	1956
n04111668	1957
n07749969	1958
n03722007	1959
n01951274	1960
n03316105	1961
n12577362	1962
n07809096	1963
n01776705	1964
n03229244	1965
n07828156	1966
n12634986	1967
n03429288	1968
n01584225	1969
n11648039	1970
n04216634	1971
n07556637	1972
n10160412	1973
n02854739	1974
n12274630	1975
n12139575	1976
n12245695	1977
n12592544	1978
n07620145	1979
n03802393	1980
n03118969	1981
n03568117	1982
n02480495	1983
n02376542	1984
n03221720	1985
n03213826	1986
n02584145	1987
n02456962	1988
n12696830	1989
n02410702	1990
n01729322	1991
n02892392	1992
n03036469	1993
n10172080	1994
n03701640	1995
n03834040	1996
n12319414	1997
n07906877	1998
n12853080	1999
n02917377	2000
n03661340	2001
n09366017	2002
n12663804	2003
n12065777	2004
n07930554	2005
n07672914	2006
n11624531	2007
n01586941	2008
n01839086	2009
n03179701	2010
n02518324	2011
n04590746	2012
n02955247	2013
n02404573	2014
n02814860	2015
n11932745	2016
n03146219	2017
n07733217	2018
n01643507	2019
n01517565	2020
n11612235	2021
n13118707	2022
n01957335	2023
n00004475	2024
n03318294	2025
n04015204	2026
n01375204	2027
n07813495	2028
n07889814	2029
n03204558	2030
n01801876	2031
n02018207	2032
n03127925	2033
n07730708	2034
n02445715	2035
n04323819	2036
n03469493	2037
n07736087	2038
n12550408	2039
n07624924	2040
n13037406	2041
n04241249	2042
n10481268	2043
n12617559	2044
n01318660	2045
n01922303	2046
n10691318	2047
n02184720	2048
n04178329	2049
n03247083	2050
n01443537	2051
n02261419	2052
n10528493	2053
n04058239	2054
n12110778	2055
n02303585	2056
n10242328	2057
n04357314	2058
n03446070	2059
n02815950	2060
n02403003	2061
n12898342	2062
n01665932	2063
n02059162	2064
n03199901	2065
n02185167	2066
n01488918	2067
n11801392	2068
n10655169	2069
n09436708	2070
n04446276	2071
n12333053	2072
n02425532	2073
n10346015	2074
n03781244	2075
n07827554	2076
n04960582	2077
n10136959	2078
n04039381	2079
n07722217	2080
n03820318	2081
n11751765	2082
n11707827	2083
n11993203	2084
n13905121	2085
n02748183	2086
n12009047	2087
n12812235	2088
n03324928	2089
n11983375	2090
n11545714	2091
n12450607	2092
n12764202	2093
n10077593	2094
n01880152	2095
n07873807	2096
n12455950	2097
n04487724	2098
n10692482	2099
n11630017	2100
n09935434	2101
n01889520	2102
n03488603	2103
n12201938	2104
n03967942	2105
n01573898	2106
n02064816	2107
n13107891	2108
n03292736	2109
n02229544	2110
n04574999	2111
n01908958	2112
n04152593	2113
n03699975	2114
n12991184	2115
n02407390	2116
n09999135	2117
n05447757	2118
n02006656	2119
n07852045	2120
n01648620	2121
n01581434	2122
n03600285	2123
n02474777	2124
n12077944	2125
n03432129	2126
n00482298	2127
n01733757	2128
n09433442	2129
n04181228	2130
n02500267	2131
n07909593	2132
n03454536	2133
n03837422	2134
n11998888	2135
n00444651	2136
n12061380	2137
n02175569	2138
n10119609	2139
n07756096	2140
n01534762	2141
n01482071	2142
n13100156	2143
n03792334	2144
n13916721	2145
n12174926	2146
n03589791	2147
n12195391	2148
n02661017	2149
n02437136	2150
n12107970	2151
n02157206	2152
n01747885	2153
n10578162	2154
n02193009	2155
n01641206	2156
n03048883	2157
n09824609	2158
n02810471	2159
n07800740	2160
n03473227	2161
n01578180	2162
n02457408	2163
n11694300	2164
n12767648	2165
n02715229	2166
n01472303	2167
n07817871	2168
n11879895	2169
n01519873	2170
n12595964	2171
n09636339	2172
n12263987	2173
n02643316	2174
n02476219	2175
n02291220	2176
n07687789	2177
n10216403	2178
n02626265	2179
n03337140	2180
n07801892	2181
n03101796	2182
n02411705	2183
n04161981	2184
n03617594	2185
n07731767	2186
n10084043	2187
n02619861	2188
n03158885	2189
n00479734	2190
n10127689	2191
n12879963	2192
n12965626	2193
n10470779	2194
n04339638	2195
n03161450	2196
n12013035	2197
n03776460	2198
n02628259	2199
n09753792	2200
n07682316	2201
n12135049	2202
n10055847	2203
n12655351	2204
n04508949	2205
n02895154	2206
n14844693	2207
n02359915	2208
n11639445	2209
n12385429	2210
n12710295	2211
n03042984	2212
n03309808	2213
n10690421	2214
n01982650	2215
n02450034	2216
n04004767	2217
n12859986	2218
n09697401	2219
n10317500	2220
n02134971	2221
n12449296	2222
n12861892	2223
n12676703	2224
n11792742	2225
n12771192	2226
n04170515	2227
n04421872	2228
n02814774	2229
n04071102	2230
n01314388	2231
n04404412	2232
n12320010	2233
n04333129	2234
n03474896	2235
n04011827	2236
n12378963	2237
n11951511	2238
n02993546	2239
n02919648	2240
n12006766	2241
n03726760	2242
n07884567	2243
n03718581	2244
n03691459	2245
n12711398	2246
n04189651	2247
n09974648	2248
n04250224	2249
n11874423	2250
n12564083	2251
n12202936	2252
n03122295	2253
n12412987	2254
n04518132	2255
n03673767	2256
n03788498	2257
n03707597	2258
n03138344	2259
n12088909	2260
n03176763	2261
n01731545	2262
n04256520	2263
n11812094	2264
n03250089	2265
n02063224	2266
n01644373	2267
n10548681	2268
n01964049	2269
n12285512	2270
n01612122	2271
n07915800	2272
n02773838	2273
n01945845	2274
n02119022	2275
n12402596	2276
n03770679	2277
n12062468	2278
n02391049	2279
n04974340	2280
n01779148	2281
n02226429	2282
n12551457	2283
n07914128	2284
n02233943	2285
n01624537	2286
n12906498	2287
n03249342	2288
n10466198	2289
n02564403	2290
n11690455	2291
n02214660	2292
n04335435	2293
n11832671	2294
n07743224	2295
n10500942	2296
n01495493	2297
n03484083	2298
n02898711	2299
n12713521	2300
n11711971	2301
n11870418	2302
n10299250	2303
n04058096	2304
n04061969	2305
n03581125	2306
n04484432	2307
n09283866	2308
n12002428	2309
n03269401	2310
n13136556	2311
n12015525	2312
n03947111	2313
n03584254	2314
n04398497	2315
n07620327	2316
n13001930	2317
n10458111	2318
n02991302	2319
n12794985	2320
n02198532	2321
n07827410	2322
n02087122	2323
n01650901	2324
n07733394	2325
n02922292	2326
n02141306	2327
n12447581	2328
n04283378	2329
n02738741	2330
n02677718	2331
n04368496	2332
n01734808	2333
n03576215	2334
n02427724	2335
n01487506	2336
n12908645	2337
n10121800	2338
n04433585	2339
n00471613	2340
n10564098	2341
n02535537	2342
n02274822	2343
n03343853	2344
n04609811	2345
n03777568	2346
n01855672	2347
n03887185	2348
n04066023	2349
n02740764	2350
n01618922	2351
n03966751	2352
n03191561	2353
n13049953	2354
n12911440	2355
n03694639	2356
n12588320	2357
n02796412	2358
n02953197	2359
n04450749	2360
n10344774	2361
n12857779	2362
n09802641	2363
n02578233	2364
n02976939	2365
n07887634	2366
n04326896	2367
n11798978	2368
n07715561	2369
n03082127	2370
n02378870	2371
n12727301	2372
n01333082	2373
n12589841	2374
n11700058	2375
n02439398	2376
n02004492	2377
n01746359	2378
n09843443	2379
n01602630	2380
n02073250	2381
n07818995	2382
n12931906	2383
n11706761	2384
n03417749	2385
n02264021	2386
n10143595	2387
n12714755	2388
n02911485	2389
n02769748	2390
n11620673	2391
n04521987	2392
n02304797	2393
n03200357	2394
n03036341	2395
n03163798	2396
n03984381	2397
n07848338	2398
n13230662	2399
n09820263	2400
n07828041	2401
n04581829	2402
n02705944	2403
n02659478	2404
n04338517	2405
n03764822	2406
n03073977	2407
n04595762	2408
n02112826	2409
n09838370	2410
n03366721	2411
n04447443	2412
n02848216	2413
n02515214	2414
n09921034	2415
n12124627	2416
n12771085	2417
n03449564	2418
n02243562	2419
n08616050	2420
n02283201	2421
n07726672	2422
n12162425	2423
n12875697	2424
n10387196	2425
n10355449	2426
n12925179	2427
n02666943	2428
n10253122	2429
n01555809	2430
n09302616	2431
n12499979	2432
n12729521	2433
n03991202	2434
n02726681	2435
n03574816	2436
n10661563	2437
n02679142	2438
n12355760	2439
n03384891	2440
n03763727	2441
n12421467	2442
n02324850	2443
n09409752	2444
n02869837	2445
n04559023	2446
n09928136	2447
n02938886	2448
n03487090	2449
n11713164	2450
n03456024	2451
n07921090	2452
n03055670	2453
n03693474	2454
n12625003	2455
n02157285	2456
n10210137	2457
n07899108	2458
n04241394	2459
n09309292	2460
n07765612	2461
n12072210	2462
n04027023	2463
n01623110	2464
n02502514	2465
n07711232	2466
n01986806	2467
n01564394	2468
n10332385	2469
n11816336	2470
n03563200	2471
n02600503	2472
n04016240	2473
n03648219	2474
n12731401	2475
n09894654	2476
n12659539	2477
n12797368	2478
n03084420	2479
n03063073	2480
n02363996	2481
n09850974	2482
n09716933	2483
n02396796	2484
n09896170	2485
n07745466	2486
n12528549	2487
n03207305	2488
n02484322	2489
n03743016	2490
n11982115	2491
n12382233	2492
n09941964	2493
n03338821	2494
n12102133	2495
n01809106	2496
n04393095	2497
n07708798	2498
n02676261	2499
n10745770	2500
n09821831	2501
n01613294	2502
n04407435	2503
n03327691	2504
n12188635	2505
n11745817	2506
n07813579	2507
n09774783	2508
n02685995	2509
n12843970	2510
n07842753	2511
n01791625	2512
n03579982	2513
n07892813	2514
n02041678	2515
n12259316	2516
n02072493	2517
n01449980	2518
n09720256	2519
n02789487	2520
n02726305	2521
n03673450	2522
n03859000	2523
n01581730	2524
n02974697	2525
n02132788	2526
n12491826	2527
n02531625	2528
n12029039	2529
n02291572	2530
n02355477	2531
n03141065	2532
n02417070	2533
n11762433	2534
n03636649	2535
n12053405	2536
n12764507	2537
n10120671	2538
n02521646	2539
n10040945	2540
n02995345	2541
n10544232	2542
n04476116	2543
n12301180	2544
n04962240	2545
n02425228	2546
n01587834	2547
n07560903	2548
n07827284	2549
n07746910	2550
n07889510	2551
n11986511	2552
n10034201	2553
n10149436	2554
n02441942	2555
n10624310	2556
n12500751	2557
n11652578	2558
n11971783	2559
n03725035	2560
n02540983	2561
n12712320	2562
n11616662	2563
n03448590	2564
n12550210	2565
n09943239	2566
n06613686	2567
n12715914	2568
n04079933	2569
n01407798	2570
n11939491	2571
n01592694	2572
n05451384	2573
n01549886	2574
n03986949	2575
n03024064	2576
n07844042	2577
n03078287	2578
n02777927	2579
n11694866	2580
n03746486	2581
n11783920	2582
n07905474	2583
n04445327	2584
n12098827	2585
n10099375	2586
n03963294	2587
n12695975	2588
n02624167	2589
n03857828	2590
n03779370	2591
n02659808	2592
n10380672	2593
n04233124	2594
n03529629	2595
n03585438	2596
n03948950	2597
n12062781	2598
n12875861	2599
n04341133	2600
n03592245	2601
n06595351	2602
n12058822	2603
n01628770	2604
n02574271	2605
n10239928	2606
n01990800	2607
n02688443	2608
n04160586	2609
n03553486	2610
n03352961	2611
n12475035	2612
n02176747	2613
n03888605	2614
n03180969	2615
n04401088	2616
n10748620	2617
n13003254	2618
n02960690	2619
n14977504	2620
n11875691	2621
n14820180	2622
n13044778	2623
n10498816	2624
n03393017	2625
n09771435	2626
n13872592	2627
n10557854	2628
n04305016	2629
n04209239	2630
n03400231	2631
n04211001	2632
n07929519	2633
n02329401	2634
n02424695	2635
n04372370	2636
n02899439	2637
n11672400	2638
n01689411	2639
n12744387	2640
n11695974	2641
n02727825	2642
n01825278	2643
n10460033	2644
n12316572	2645
n02451415	2646
n01614925	2647
n04196080	2648
n09639382	2649
n03999992	2650
n03686130	2651
n01439514	2652
n01486010	2653
n01557962	2654
n02599052	2655
n12293723	2656
n03669886	2657
n03117199	2658
n12524188	2659
n02402010	2660
n04534520	2661
n03654576	2662
n02700258	2663
n07774842	2664
n11689678	2665
n10625860	2666
n01541922	2667
n12522894	2668
n03979377	2669
n07577772	2670
n03733925	2671
n05233741	2672
n04147495	2673
n02596381	2674
n10548537	2675
n12842302	2676
n10054657	2677
n03412220	2678
n13134302	2679
n01745484	2680
n02444819	2681
n02602059	2682
n09633969	2683
n09820044	2684
n10712474	2685
n12051792	2686
n03100346	2687
n01754876	2688
n13030852	2689
n07936548	2690
n07820960	2691
n02523877	2692
n12510343	2693
n03450230	2694
n02286425	2695
n03189083	2696
n03638883	2697
n02128757	2698
n02264363	2699
n09928451	2700
n02911332	2701
n03234164	2702
n11727091	2703
n03074855	2704
n02292692	2705
n10495167	2706
n02882647	2707
n01888264	2708
n12730544	2709
n12339831	2710
n03410022	2711
n03773504	2712
n12756457	2713
n04030965	2714
n04387706	2715
n12753762	2716
n02395003	2717
n09929577	2718
n07734555	2719
n02987047	2720
n02565324	2721
n03366823	2722
n10074578	2723
n10360747	2724
n02101108	2725
n12752205	2726
n02753044	2727
n03201776	2728
n12705013	2729
n12136720	2730
n03144873	2731
n12644283	2732
n12728322	2733
n12634734	2734
n15092059	2735
n03838298	2736
n04595855	2737
n12667582	2738
n13084184	2739
n12694486	2740
n03374102	2741
n12447891	2742
n12252866	2743
n03208556	2744
n02276902	2745
n09877587	2746
n03836062	2747
n00439826	2748
n02640242	2749
n03868863	2750
n11946051	2751
n03338287	2752
n04511002	2753
n03147509	2754
n07891726	2755
n12779851	2756
n07729485	2757
n07909811	2758
n03722288	2759
n01473806	2760
n07710007	2761
n11878633	2762
n12356395	2763
n02431976	2764
n10257221	2765
n01944812	2766
n12165758	2767
n02439033	2768
n07722485	2769
n10162354	2770
n04016576	2771
n12170585	2772
n03154073	2773
n01571904	2774
n06275353	2775
n02243878	2776
n02048698	2777
n03013580	2778
n03918737	2779
n02606384	2780
n00475787	2781
n12928071	2782
n03841143	2783
n03924069	2784
n12930778	2785
n02675077	2786
n10189278	2787
n12851094	2788
n12775717	2789
n10525134	2790
n02566489	2791
n07749731	2792
n12808007	2793
n03914583	2794
n07736256	2795
n03839795	2796
n11628793	2797
n02060889	2798
n09752519	2799
n12451915	2800
n12199790	2801
n07828378	2802
n01676755	2803
n04356056	2804
n03528901	2805
n03603722	2806
n04184435	2807
n07731587	2808
n02403231	2809
n03446268	2810
n01884476	2811
n09610405	2812
n02752496	2813
n10499355	2814
n10355142	2815
n10353016	2816
n02854926	2817
n09970088	2818
n02426813	2819
n01567133	2820
n09989502	2821
n03101986	2822
n03662719	2823
n02749479	2824
n02080713	2825
n11747468	2826
n03846772	2827
n11612018	2828
n09960688	2829
n01601068	2830
n07557434	2831
n02068974	2832
n12836862	2833
n02198859	2834
n02670683	2835
n04152387	2836
n04328946	2837
n04367011	2838
n07911677	2839
n01853498	2840
n03470387	2841
n02298541	2842
n02517442	2843
n02382948	2844
n07607707	2845
n04226322	2846
n01881857	2847
n12742741	2848
n12479537	2849
n11793403	2850
n02251775	2851
n07723559	2852
n12260799	2853
n01829869	2854
n10644598	2855
n01480516	2856
n02679257	2857
n11649359	2858
n02715513	2859
n03490449	2860
n07717070	2861
n01563128	2862
n10241024	2863
n04118776	2864
n02164464	2865
n02407172	2866
n07886572	2867
n07904934	2868
n03376279	2869
n02519686	2870
n03305522	2871
n03631177	2872
n10150794	2873
n02139199	2874
n04380346	2875
n12298165	2876
n11627168	2877
n02555863	2878
n01981702	2879
n01321854	2880
n10341446	2881
n01318894	2882
n02542017	2883
n03538634	2884
n02034971	2885
n03903424	2886
n02504770	2887
n12443323	2888
n07890617	2889
n04069276	2890
n03512911	2891
n12435152	2892
n11830714	2893
n03873699	2894
n07726796	2895
n02254697	2896
n12887713	2897
n07931870	2898
n04047401	2899
n12093885	2900
n12409470	2901
n07812184	2902
n03870672	2903
n12800586	2904
n04969798	2905
n12633638	2906
n10433737	2907
n12496427	2908
n11990313	2909
n01609751	2910
n10084295	2911
n04532106	2912
n07813717	2913
n10126177	2914
n04060647	2915
n01874434	2916
n07883251	2917
n07711080	2918
n12539306	2919
n09632518	2920
n10247358	2921
n03541091	2922
n02471762	2923
n12745386	2924
n03176594	2925
n07683617	2926
n01798484	2927
n02811719	2928
n09918554	2929
n12263738	2930
n11545524	2931
n04018667	2932
n11852531	2933
n01616086	2934
n10456696	2935
n02256172	2936
n12162181	2937
n04535524	2938
n03885028	2939
n01814370	2940
n10522324	2941
n12286826	2942
n02764044	2943
n12121610	2944
n04248209	2945
n03574555	2946
n04186848	2947
n03415252	2948
n03788601	2949
n01836087	2950
n03943115	2951
n09894909	2952
n12890265	2953
n10092488	2954
n03758089	2955
n02197185	2956
n12173664	2957
n10661216	2958
n04269086	2959
n02045369	2960
n11728099	2961
n09990777	2962
n07924033	2963
n10711483	2964
n10355306	2965
n04133789	2966
n03852280	2967
n01663401	2968
n07837362	2969
n04259468	2970
n03052464	2971
n10336411	2972
n11838916	2973
n12340383	2974
n02643112	2975
n01681940	2976
n10246703	2977
n01472502	2978
n12171966	2979
n11990167	2980
n07748574	2981
n10772580	2982
n10185148	2983
n07685730	2984
n07850329	2985
n02016358	2986
n11940750	2987
n03270165	2988
n10438172	2989
n02962938	2990
n12316444	2991
n03929660	2992
n11875938	2993
n01728572	2994
n01892551	2995
n01856553	2996
n03845190	2997
n03099454	2998
n04519887	2999
n02075927	3000
n07821919	3001
n03142431	3002
n04472243	3003
n11802800	3004
n11927740	3005
n02933112	3006
n04081844	3007
n02148835	3008
n04608923	3009
n07829412	3010
n04171831	3011
n02875436	3012
n01822300	3013
n11782878	3014
n07619004	3015
n01548694	3016
n02948072	3017
n04373894	3018
n04071393	3019
n03775199	3020
n10067968	3021
n02343772	3022
n03061050	3023
n10482220	3024
n12002651	3025
n04166281	3026
n10279018	3027
n10618848	3028
n12061104	3029
n02182045	3030
n12402348	3031
n12092262	3032
n12767423	3033
n01857632	3034
n03907654	3035
n12728164	3036
n04453910	3037
n02153203	3038
n02084071	3039
n03684823	3040
n12771390	3041
n12161056	3042
n03123553	3043
n01385017	3044
n02103406	3045
n11991777	3046
n11928858	3047
n02300554	3048
n12869478	3049
n04063868	3050
n03744276	3051
n09629752	3052
n12666159	3053
n11617631	3054
n09622049	3055
n03394480	3056
n07820814	3057
n12033139	3058
n02735688	3059
n13050940	3060
n02896442	3061
n11977303	3062
n12741222	3063
n02268443	3064
n01930852	3065
n03279153	3066
n04419073	3067
n02999410	3068
n02022684	3069
n10407310	3070
n02295870	3071
n01844917	3072
n12352287	3073
n02495242	3074
n04077734	3075
n10190516	3076
n01812866	3077
n11823043	3078
n01964271	3079
n07818689	3080
n01570676	3081
n03390327	3082
n12585137	3083
n10548419	3084
n02443808	3085
n02532602	3086
n12321395	3087
n01653026	3088
n11805544	3089
n12904314	3090
n07568095	3091
n03639675	3092
n10036266	3093
n11832480	3094
n07573103	3095
n02814533	3096
n01664990	3097
n02373336	3098
n12258101	3099
n02601767	3100
n01772222	3101
n01441425	3102
n04183217	3103
n13873502	3104
n12485981	3105
n07715721	3106
n04404200	3107
n12656685	3108
n03100490	3109
n02880546	3110
n10741367	3111
n03343560	3112
n01457407	3113
n07762534	3114
n04550184	3115
n09991867	3116
n02988679	3117
n02247511	3118
n10366145	3119
n13193269	3120
n02976641	3121
n10684827	3122
n01770795	3123
n01943899	3124
n07569106	3125
n02505998	3126
n12075151	3127
n07933274	3128
n03902220	3129
n02082791	3130
n07908647	3131
n12522678	3132
n03994008	3133
n11609684	3134
n02551668	3135
n04568557	3136
n12394638	3137
n02217839	3138
n04044716	3139
n13070308	3140
n13863771	3141
n03537412	3142
n02795169	3143
n03201638	3144
n04091693	3145
n04289690	3146
n02092468	3147
n02806088	3148
n02480153	3149
n02596252	3150
n01855476	3151
n03778817	3152
n04504770	3153
n13173882	3154
n01484850	3155
n12711596	3156
n07574602	3157
n02887970	3158
n01566645	3159
n07828275	3160
n01314663	3161
n01999767	3162
n04389033	3163
n03470222	3164
n13150378	3165
n03525252	3166
n02885882	3167
n03684740	3168
n03194812	3169
n12647376	3170
n02301935	3171
n11759853	3172
n04965661	3173
n02346998	3174
n12661538	3175
n12642964	3176
n02639087	3177
n03211117	3178
n12590232	3179
n03350602	3180
n03928116	3181
n09936892	3182
n02871963	3183
n02932019	3184
n12067193	3185
n03443543	3186
n03112869	3187
n12450344	3188
n12847927	3189
n11678010	3190
n03125057	3191
n07769886	3192
n10304914	3193
n12732756	3194
n03274561	3195
n02200509	3196
n12641413	3197
n09327077	3198
n03320519	3199
n03995535	3200
n04021503	3201
n12251278	3202
n02955540	3203
n09903153	3204
n04459122	3205
n04005630	3206
n02627532	3207
n04576211	3208
n02604954	3209
n12677612	3210
n12357968	3211
n09366317	3212
n12408280	3213
n04306847	3214
n04968895	3215
n10732010	3216
n09805475	3217
n01873310	3218
n03462747	3219
n07681450	3220
n02818832	3221
n01495701	3222
n12658118	3223
n02231487	3224
n11635433	3225
n02557909	3226
n04270147	3227
n02370806	3228
n02536864	3229
n03780047	3230
n07951464	3231
n01915811	3232
n01967094	3233
n02234848	3234
n01944955	3235
n02106966	3236
n03058107	3237
n02403325	3238
n04117216	3239
n12729729	3240
n02261757	3241
n07730855	3242
n02855925	3243
n03003091	3244
n12727518	3245
n04452848	3246
n04085017	3247
n02770078	3248
n10102800	3249
n03515934	3250
n02590702	3251
n12262018	3252
n02692513	3253
n01916925	3254
n12031547	3255
n01956481	3256
n00454237	3257
n02377703	3258
n04554684	3259
n02768433	3260
n04446162	3261
n02563182	3262
n03396654	3263
n12142450	3264
n07854813	3265
n03614007	3266
n03016953	3267
n02226183	3268
n12282235	3269
n04376876	3270
n13900287	3271
n01876667	3272
n07922764	3273
n04443257	3274
n12441958	3275
n03146342	3276
n09756961	3277
n03848348	3278
n11828973	3279
n13137409	3280
n03662887	3281
n01580077	3282
n07869937	3283
n02861022	3284
n14810561	3285
n04970059	3286
n02265330	3287
n04216963	3288
n03126580	3289
n09936825	3290
n01317916	3291
n02005790	3292
n12406715	3293
n12269241	3294
n07907548	3295
n02033041	3296
n03731695	3297
n10020366	3298
n02538985	3299
n12803958	3300
n12023726	3301
n10752480	3302
n12546183	3303
n10641223	3304
n00471437	3305
n04062807	3306
n12945549	3307
n03812924	3308
n12919195	3309
n01800424	3310
n02755352	3311
n02275773	3312
n03102371	3313
n04027367	3314
n00470966	3315
n03421768	3316
n11759224	3317
n07746334	3318
n03728437	3319
n07582609	3320
n11770256	3321
n04371430	3322
n12262553	3323
n10240082	3324
n02658531	3325
n02573249	3326
n02278839	3327
n07774182	3328
n12728864	3329
n03202760	3330
n10025060	3331
n04498523	3332
n02849154	3333
n07905770	3334
n02368399	3335
n10665698	3336
n11995396	3337
n02760658	3338
n09945319	3339
n09624168	3340
n02412440	3341
n01685808	3342
n07811416	3343
n01461646	3344
n03381126	3345
n02492035	3346
n13028611	3347
n03079741	3348
n02044778	3349
n03115180	3350
n03966976	3351
n10699752	3352
n01610226	3353
n03689157	3354
n03878066	3355
n09782167	3356
n02424909	3357
n01625121	3358
n02482650	3359
n02260421	3360
n09927089	3361
n03471779	3362
n04417180	3363
n05586759	3364
n10659042	3365
n10668666	3366
n04516354	3367
n02266864	3368
n12329473	3369
n03187268	3370
n03490324	3371
n10726786	3372
n01881171	3373
n11925898	3374
n09893502	3375
n12045514	3376
n07578093	3377
n10299700	3378
n03284482	3379
n03996416	3380
n03327841	3381
n11849467	3382
n12189779	3383
n02100236	3384
n10267166	3385
n02803934	3386
n03374473	3387
n04226537	3388
n00454624	3389
n04356595	3390
n10575787	3391
n02715712	3392
n04003241	3393
n01907738	3394
n02212602	3395
n07714078	3396
n03410740	3397
n03334017	3398
n11658544	3399
n01484097	3400
n12601494	3401
n02682922	3402
n02133704	3403
n01956344	3404
n02279972	3405
n03993180	3406
n12583126	3407
n02930766	3408
n02262449	3409
n01846331	3410
n01812337	3411
n12863624	3412
n04526520	3413
n03777126	3414
n06277280	3415
n04561422	3416
n12117912	3417
n04010779	3418
n12591351	3419
n02405577	3420
n10495421	3421
n07908411	3422
n07826453	3423
n03042490	3424
n01937579	3425
n01854415	3426
n12945366	3427
n04530566	3428
n10030277	3429
n11727358	3430
n12635955	3431
n12358293	3432
n01596273	3433
n03547054	3434
n01569423	3435
n13231078	3436
n04031884	3437
n07720615	3438
n03404449	3439
n02140491	3440
n02752615	3441
n03975035	3442
n12190869	3443
n10178216	3444
n04097866	3445
n10001217	3446
n04170037	3447
n13211790	3448
n02909870	3449
n12141495	3450
n13188767	3451
n07690019	3452
n10072054	3453
n04270891	3454
n04261116	3455
n02588286	3456
n12775919	3457
n02461128	3458
n06263609	3459
n12371439	3460
n13207736	3461
n13199970	3462
n02024763	3463
n04390977	3464
n04451818	3465
n09618957	3466
n12917901	3467
n11647703	3468
n03785499	3469
n04490091	3470
n02104523	3471
n12328398	3472
n02766792	3473
n07758680	3474
n10142391	3475
n02264591	3476
n10117739	3477
n04043411	3478
n02708711	3479
n13067191	3480
n04218564	3481
n02368116	3482
n03326795	3483
n12643473	3484
n12690653	3485
n02431628	3486
n09772930	3487
n03344935	3488
n10788852	3489
n04013729	3490
n05399034	3491
n12406488	3492
n04211356	3493
n01985493	3494
n07749582	3495
n09919451	3496
n02983507	3497
n04375926	3498
n02445394	3499
n04125853	3500
n07719437	3501
n02572196	3502
n10787470	3503
n10080869	3504
n07934530	3505
n02777734	3506
n12674120	3507
n01757677	3508
n09830194	3509
n12548280	3510
n10037385	3511
n04114069	3512
n12370174	3513
n03146846	3514
n01976146	3515
n01682714	3516
n07735803	3517
n02040266	3518
n09823502	3519
n04062179	3520
n03760671	3521
n02592371	3522
n02610980	3523
n02886599	3524
n04447861	3525
n11712282	3526
n02409870	3527
n03528263	3528
n10583790	3529
n03605722	3530
n13139647	3531
n02984699	3532
n10095869	3533
n01949973	3534
n03044671	3535
n01579028	3536
n04060904	3537
n12947544	3538
n01543936	3539
n03569293	3540
n00450335	3541
n11924445	3542
n11622771	3543
n02399000	3544
n02997607	3545
n09912995	3546
n12717644	3547
n01851375	3548
n01315213	3549
n04402057	3550
n10759151	3551
n03436990	3552
n02350105	3553
n12112008	3554
n12109827	3555
n12377198	3556
n12006306	3557
n12399132	3558
n01927456	3559
n12516584	3560
n04469813	3561
n11668117	3562
n00440747	3563
n12579038	3564
n03139089	3565
n12321077	3566
n10657835	3567
n03510072	3568
n12628986	3569
n07580053	3570
n12997654	3571
n00446493	3572
n11917835	3573
n03450516	3574
n07819769	3575
n01912454	3576
n12501202	3577
n04549919	3578
n02438580	3579
n02416964	3580
n03119203	3581
n02636854	3582
n02425086	3583
n01835918	3584
n02135220	3585
n04288272	3586
n10576962	3587
n02376918	3588
n02030996	3589
n03973628	3590
n04300358	3591
n04077430	3592
n12846335	3593
n02449699	3594
n01443831	3595
n01696633	3596
n00479076	3597
n09773962	3598
n07915618	3599
n03357716	3600
n04407686	3601
n03409920	3602
n03402188	3603
n03017168	3604
n04171629	3605
n10435251	3606
n02862048	3607
n12736603	3608
n13032923	3609
n12697514	3610
n01998183	3611
n02625851	3612
n10218043	3613
n12480895	3614
n01796729	3615
n02389559	3616
n09979321	3617
n02132580	3618
n01737021	3619
n04538878	3620
n01517966	3621
n02974003	3622
n03909160	3623
n03251533	3624
n12696492	3625
n07859583	3626
n01931520	3627
n11953339	3628
n02229156	3629
n11972759	3630
n04231693	3631
n03548626	3632
n04588739	3633
n03204955	3634
n03726233	3635
n02576575	3636
n04107984	3637
n02557749	3638
n11923397	3639
n12679876	3640
n03461385	3641
n04502670	3642
n02220518	3643
n03594734	3644
n02639605	3645
n11817914	3646
n00451866	3647
n12551173	3648
n11615026	3649
n12594324	3650
n04545471	3651
n12751172	3652
n01597336	3653
n04019335	3654
n07932323	3655
n10321882	3656
n03170635	3657
n02085374	3658
n12602980	3659
n07929351	3660
n10042845	3661
n03604629	3662
n13183056	3663
n13005329	3664
n12367611	3665
n02127052	3666
n12735160	3667
n03176386	3668
n13897996	3669
n03431243	3670
n10516527	3671
n04301474	3672
n03473966	3673
n03408054	3674
n01622959	3675
n03792782	3676
n01840775	3677
n01326291	3678
n10577284	3679
n02769290	3680
n03976657	3681
n12285900	3682
n03196990	3683
n04046974	3684
n12834798	3685
n02271897	3686
n01376237	3687
n03532672	3688
n10773665	3689
n02959942	3690
n01783706	3691
n11883945	3692
n04149083	3693
n11797981	3694
n09906449	3695
n03120778	3696
n09931640	3697
n07774295	3698
n09640327	3699
n09801102	3700
n04123740	3701
n03009269	3702
n02653145	3703
n03604843	3704
n01970667	3705
n04285622	3706
n02100399	3707
n04596852	3708
n01606177	3709
n03681477	3710
n02372584	3711
n11756092	3712
n03335030	3713
n01872401	3714
n04120842	3715
n04171459	3716
n01611472	3717
n03546340	3718
n03891051	3719
n00434075	3720
n10656223	3721
n02430045	3722
n12768369	3723
n12092930	3724
n07744811	3725
n07761611	3726
n03841666	3727
n12931542	3728
n03976467	3729
n04973669	3730
n04371563	3731
n10643937	3732
n04105893	3733
n11662128	3734
n07581775	3735
n04348184	3736
n01734418	3737
n02305929	3738
n07832902	3739
n03491988	3740
n10165448	3741
n03879705	3742
n03024518	3743
n10276477	3744
n12061614	3745
n02277094	3746
n10075693	3747
n02437616	3748
n10437698	3749
n07765999	3750
n03636248	3751
n01608432	3752
n03072440	3753
n02680754	3754
n10129338	3755
n04374735	3756
n03919096	3757
n01779629	3758
n14977188	3759
n02694426	3760
n02812201	3761
n02185481	3762
n12198286	3763
n02241008	3764
n03871083	3765
n09246464	3766
n09920901	3767
n12960378	3768
n09853881	3769
n04967191	3770
n10734963	3771
n13006171	3772
n03865949	3773
n07905618	3774
n02475078	3775
n12804352	3776
n03380867	3777
n02082056	3778
n11951052	3779
n10333317	3780
n02282903	3781
n07721325	3782
n04039041	3783
n03273551	3784
n01669191	3785
n03619650	3786
n01803641	3787
n01402600	3788
n12015959	3789
n04443433	3790
n04077594	3791
n12336092	3792
n04026813	3793
n02469914	3794
n04417086	3795
n12848499	3796
n04497570	3797
n03750614	3798
n04004210	3799
n09669631	3800
n12022382	3801
n02189670	3802
n03644378	3803
n07800487	3804
n02802721	3805
n11654293	3806
n12333530	3807
n01930112	3808
n01741232	3809
n11919447	3810
n11975254	3811
n02259212	3812
n02714535	3813
n04190747	3814
n12882779	3815
n07736371	3816
n03928814	3817
n02405440	3818
n00449295	3819
n02406174	3820
n02754103	3821
n04357930	3822
n12786464	3823
n07680416	3824
n01974773	3825
n02075296	3826
n04121511	3827
n02550460	3828
n02041085	3829
n02173784	3830
n04593866	3831
n12588780	3832
n09620078	3833
n02958343	3834
n11994150	3835
n01577941	3836
n09961605	3837
n10117851	3838
n10630188	3839
n01885498	3840
n04169437	3841
n10345015	3842
n02150482	3843
n04211528	3844
n02869563	3845
n01579410	3846
n09855433	3847
n03981566	3848
n11704093	3849
n13123431	3850
n02309337	3851
n07907037	3852
n00480508	3853
n02982599	3854
n03085915	3855
n09359803	3856
n07713074	3857
n01891633	3858
n12731029	3859
n01554448	3860
n07597365	3861
n10151760	3862
n04403638	3863
n04018399	3864
n03614532	3865
n07743723	3866
n02076779	3867
n03954731	3868
n04045941	3869
n04390873	3870
n00469651	3871
n11757190	3872
n02199170	3873
n03055159	3874
n10293861	3875
n03355468	3876
n03605915	3877
n02746365	3878
n04230808	3879
n10131590	3880
n03059366	3881
n02937336	3882
n09834378	3883
n12794568	3884
n02740300	3885
n03277771	3886
n07902799	3887
n12710577	3888
n04612840	3889
n12578255	3890
n03109881	3891
n03859958	3892
n03550420	3893
n02187554	3894
n03087643	3895
n15092227	3896
n11692265	3897
n02366959	3898
n04138977	3899
n02172870	3900
n01324916	3901
n04370456	3902
n10585077	3903
n01525720	3904
n03655072	3905
n02320127	3906
n02470899	3907
n12474167	3908
n01681328	3909
n07886849	3910
n04210390	3911
n02383231	3912
n02451575	3913
n02009750	3914
n09896401	3915
n04551055	3916
n01693783	3917
n03566555	3918
n11695599	3919
n07812790	3920
n04052757	3921
n12419037	3922
n01745125	3923
n13194036	3924
n02448318	3925
n02627292	3926
n11623967	3927
n03790755	3928
n01775370	3929
n12459629	3930
n12408717	3931
n07679356	3932
n01315581	3933
n02882483	3934
n03014705	3935
n09765278	3936
n01999186	3937
n01776313	3938
n03358726	3939
n04082886	3940
n11727540	3941
n07749446	3942
n01613615	3943
n03295140	3944
n08598301	3945
n13149296	3946
n01924916	3947
n12641180	3948
n06616216	3949
n03017070	3950
n10617193	3951
n04346679	3952
n12552893	3953
n01816887	3954
n04201733	3955
n02026059	3956
n07567139	3957
n02300797	3958
n12647560	3959
n01537134	3960
n10208950	3961
n01342269	3962
n03020034	3963
n13135832	3964
n10411356	3965
n07927197	3966
n12766043	3967
n02099029	3968
n03895866	3969
n03625355	3970
n04581595	3971
n12185254	3972
n02934168	3973
n03040229	3974
n01439808	3975
n02386310	3976
n03875218	3977
n02533209	3978
n10245863	3979
n04418644	3980
n02534734	3981
n01813385	3982
n11553240	3983
n07754279	3984
n06883725	3985
n02493793	3986
n10173410	3987
n01550172	3988
n03965456	3989
n12060546	3990
n02202678	3991
n07814203	3992
n07912211	3993
n12983961	3994
n03665924	3995
n02316707	3996
n02908217	3997
n12664710	3998
n04383130	3999
n12119099	4000
n12793015	4001
n03677766	4002
n09840217	4003
n03385557	4004
n04137444	4005
n02788148	4006
n01627424	4007
n12549420	4008
n04595285	4009
n02165456	4010
n12992868	4011
n02246628	4012
n10621514	4013
n07874531	4014
n04143897	4015
n04100174	4016
n03534776	4017
n12936826	4018
n09606527	4019
n12266796	4020
n03225108	4021
n03088707	4022
n12725521	4023
n10801561	4024
n02690373	4025
n01635176	4026
n04262161	4027
n02472987	4028
n12400924	4029
n01966586	4030
n01384164	4031
n08558963	4032
n14899328	4033
n01695060	4034
n07582441	4035
n02944579	4036
n06271778	4037
n09624559	4038
n12707199	4039
n04102406	4040
n12744850	4041
n09950457	4042
n03610098	4043
n12461466	4044
n12592839	4045
n02117900	4046
n02331046	4047
n13154841	4048
n03997484	4049
n10709529	4050
n11814584	4051
n07750146	4052
n02327028	4053
n10400998	4054
n03339643	4055
n12402051	4056
n11921395	4057
n04449290	4058
n03513376	4059
n11704791	4060
n02822579	4061
n12839979	4062
n10277912	4063
n12822115	4064
n03838899	4065
n12743352	4066
n03033986	4067
n02408429	4068
n10407954	4069
n11867311	4070
n01727646	4071
n02765028	4072
n01501160	4073
n03525827	4074
n02692232	4075
n02728440	4076
n09976728	4077
n01468238	4078
n03199647	4079
n13120211	4080
n04341686	4081
n15091129	4082
n04022434	4083
n01850373	4084
n01655344	4085
n12927013	4086
n03302938	4087
n12159055	4088
n12660601	4089
n12605683	4090
n10618685	4091
n02275560	4092
n12475242	4093
n01446760	4094
n12356960	4095
n13905792	4096
n02046759	4097
n02139671	4098
n03799375	4099
n07919310	4100
n07763792	4101
n07718472	4102
n12907057	4103
n13198054	4104
n07804771	4105
n07764847	4106
n03031756	4107
n10410246	4108
n03159640	4109
n03749807	4110
n02554730	4111
n11781176	4112
n03834604	4113
n11773408	4114
n12709103	4115
n04199027	4116
n10794014	4117
n02885338	4118
n01318478	4119
n07818029	4120
n12076577	4121
n02259377	4122
n01684133	4123
n00468480	4124
n02415577	4125
n03550153	4126
n12189987	4127
n13224673	4128
n03405265	4129
n03323703	4130
n12566331	4131
n03730153	4132
n04191943	4133
n12408466	4134
n12539832	4135
n11930788	4136
n11858814	4137
n07905979	4138
n03050026	4139
n07826653	4140
n01893825	4141
n12633994	4142
n12132092	4143
n11771924	4144
n03953020	4145
n07757312	4146
n12450840	4147
n13207923	4148
n09856671	4149
n03265032	4150
n02817650	4151
n03042697	4152
n10643837	4153
n01587526	4154
n01581166	4155
n10277638	4156
n03590306	4157
n07860805	4158
n02289610	4159
n01446589	4160
n01323781	4161
n01778217	4162
n04285965	4163
n13124654	4164
n01573627	4165
n09905530	4166
n02839910	4167
n10694258	4168
n04050066	4169
n02432983	4170
n02704949	4171
n04502851	4172
n03767459	4173
n10502950	4174
n10484858	4175
n09830400	4176
n10131268	4177
n01835769	4178
n02196119	4179
n02120079	4180
n10281546	4181
n02907082	4182
n10269289	4183
n10241300	4184
n10345100	4185
n12050959	4186
n02457945	4187
n04190464	4188
n04590553	4189
n02281787	4190
n10335931	4191
n07721456	4192
n03427202	4193
n03479397	4194
n12194147	4195
n07747607	4196
n02171453	4197
n07757132	4198
n06266417	4199
n10575594	4200
n10252075	4201
n01941223	4202
n04023249	4203
n02531114	4204
n02016659	4205
n12467592	4206
n11959632	4207
n13199717	4208
n01480880	4209
n03911866	4210
n02607862	4211
n02523427	4212
n13068434	4213
n02766534	4214
n01498989	4215
n07900406	4216
n01885158	4217
n03196324	4218
n12741792	4219
n04559451	4220
n01498041	4221
n11635152	4222
n10266328	4223
n11748811	4224
n03886053	4225
n12366313	4226
n02561108	4227
n12710693	4228
n01981276	4229
n04176068	4230
n10531109	4231
n02964634	4232
n04388743	4233
n10610850	4234
n02760855	4235
n01644900	4236
n10619492	4237
n11832899	4238
n13013534	4239
n12948251	4240
n02906734	4241
n04457326	4242
n02147591	4243
n07907161	4244
n12852570	4245
n03047941	4246
n03239054	4247
n12945177	4248
n02579557	4249
n02031934	4250
n04318131	4251
n13903079	4252
n03379828	4253
n01955084	4254
n01953361	4255
n12801520	4256
n07873057	4257
n09835348	4258
n10342543	4259
n09983572	4260
n12549192	4261
n01712752	4262
n10323999	4263
n03709206	4264
n02216740	4265
n11902200	4266
n12834938	4267
n02936281	4268
n10669991	4269
n02663849	4270
n09779124	4271
n09617696	4272
n12041446	4273
n03916031	4274
n04206356	4275
n11999656	4276
n02902079	4277
n10197392	4278
n09381242	4279
n11956348	4280
n02388276	4281
n07735510	4282
n13110915	4283
n12055073	4284
n03545150	4285
n02851099	4286
n02800497	4287
n10164233	4288
n02615298	4289
n11996251	4290
n04089666	4291
n07724943	4292
n10001481	4293
n03122748	4294
n13193642	4295
n13108131	4296
n02942699	4297
n03087366	4298
n07882497	4299
n02166229	4300
n03202940	4301
n02950826	4302
n11849271	4303
n12773917	4304
n10457444	4305
n03294833	4306
n12854048	4307
n07827750	4308
n02833140	4309
n03617095	4310
n02354781	4311
n02621908	4312
n04184095	4313
n02590495	4314
n10042690	4315
n12080395	4316
n02801938	4317
n03393324	4318
n10604634	4319
n01815601	4320
n03904183	4321
n02446645	4322
n03868044	4323
n02827606	4324
n07736692	4325
n04476259	4326
n03113152	4327
n07763629	4328
n03819994	4329
n02058221	4330
n02264885	4331
n10671042	4332
n12493208	4333
n01890860	4334
n04055180	4335
n10085101	4336
n12196129	4337
n02180233	4338
n01579260	4339
n01557185	4340
n02910353	4341
n07920989	4342
n02944826	4343
n02925519	4344
n06596179	4345
n11666854	4346
n02374451	4347
n02360781	4348
n12544240	4349
n02955065	4350
n07755929	4351
n04495051	4352
n02328429	4353
n13219422	4354
n01877812	4355
n09287968	4356
n04610503	4357
n12975804	4358
n02509815	4359
n11665372	4360
n02624551	4361
n12341542	4362
n02822865	4363
n04284002	4364
n01621127	4365
n02041246	4366
n12604228	4367
n09199101	4368
n02169497	4369
n12682411	4370
n11658709	4371
n02128385	4372
n10768903	4373
n12771597	4374
n01854700	4375
n12288005	4376
n11894770	4377
n07893891	4378
n12534862	4379
n03075097	4380
n00015388	4381
n12928491	4382
n03413428	4383
n07812662	4384
n03476083	4385
n09213565	4386
n10759331	4387
n12246232	4388
n02212062	4389
n03994417	4390
n02869249	4391
n03352628	4392
n03319745	4393
n11752578	4394
n10378026	4395
n02406432	4396
n12858397	4397
n02028900	4398
n09727440	4399
n02763714	4400
n10000294	4401
n03010473	4402
n02670186	4403
n07803093	4404
n01968315	4405
n07761309	4406
n02079851	4407
n03199775	4408
n04295081	4409
n11708658	4410
n02188699	4411
n12205694	4412
n02296612	4413
n01643255	4414
n02418064	4415
n01322221	4416
n12413419	4417
n01387065	4418
n03622526	4419
n01743605	4420
n02062744	4421
n04020298	4422
n07581346	4423
n04248851	4424
n07588947	4425
n09990415	4426
n07746186	4427
n01796519	4428
n09917214	4429
n02852173	4430
n04204755	4431
n12980840	4432
n02508742	4433
n04153751	4434
n02008041	4435
n13919547	4436
n01807828	4437
n01616764	4438
n03639077	4439
n10618342	4440
n07681926	4441
n10292316	4442
n02407521	4443
n10792856	4444
n04592741	4445
n03534695	4446
n03282060	4447
n10249950	4448
n11876803	4449
n03320046	4450
n10504206	4451
n02492356	4452
n13043926	4453
n09710164	4454
n04438304	4455
n03594945	4456
n06596364	4457
n04460130	4458
n04516672	4459
n03536761	4460
n02340930	4461
n02889425	4462
n13902048	4463
n03673027	4464
n10615179	4465
n12192877	4466
n02967407	4467
n04973386	4468
n03815615	4469
n10499857	4470
n09784564	4471
n02625612	4472
n07575076	4473
n11923174	4474
n11940349	4475
n06359193	4476
n02835271	4477
n10149867	4478
n03907908	4479
n12446908	4480
n06263369	4481
n13138308	4482
n07774479	4483
n03659809	4484
n02769075	4485
n03098140	4486
n02894605	4487
n04584207	4488
n11820965	4489
n11643835	4490
n03924407	4491
n04322026	4492
n10411867	4493
n03621049	4494
n12117695	4495
n12278371	4496
n10549510	4497
n02321529	4498
n12860365	4499
n03619793	4500
n02946921	4501
n12387633	4502
n02283951	4503
n10128519	4504
n02672371	4505
n03502331	4506
n04151581	4507
n02631041	4508
n01934440	4509
n12845413	4510
n11674332	4511
n01989869	4512
n12943049	4513
n02415435	4514
n01565599	4515
n09825750	4516
n03325941	4517
n01713764	4518
n12725738	4519
n04243142	4520
n07826544	4521
n02484473	4522
n04122825	4523
n02354621	4524
n07595180	4525
n03072201	4526
n03006626	4527
n10633450	4528
n12454159	4529
n01553142	4530
n02454794	4531
n11786843	4532
n03491724	4533
n07570720	4534
n04577769	4535
n03044934	4536
n04561734	4537
n02817799	4538
n02774630	4539
n11793779	4540
n03316406	4541
n02726017	4542
n07818133	4543
n03619890	4544
n12639168	4545
n03286572	4546
n03820728	4547
n02338145	4548
n04292572	4549
n01316949	4550
n01876326	4551
n03976268	4552
n02654425	4553
n03679712	4554
n04139859	4555
n04530283	4556
n01651487	4557
n07860988	4558
n03656484	4559
n11871059	4560
n04340750	4561
n10478960	4562
n13895262	4563
n01315805	4564
n01449374	4565
n12221191	4566
n02303777	4567
n04241042	4568
n01574801	4569
n07911371	4570
n12798284	4571
n03532342	4572
n09393605	4573
n02311060	4574
n07561112	4575
n01756291	4576
n01857325	4577
n12281974	4578
n12332218	4579
n01926379	4580
n01330497	4581
n03708036	4582
n11834272	4583
n09809749	4584
n10017422	4585
n03271574	4586
n12464649	4587
n01942869	4588
n02669723	4589
n12807251	4590
n12119238	4591
n11654438	4592
n02836035	4593
n01527194	4594
n13007417	4595
n12353754	4596
n09931418	4597
n02935017	4598
n03099945	4599
n03014440	4600
n02963159	4601
n01909906	4602
n02838728	4603
n07692614	4604
n02538406	4605
n02285548	4606
n02840619	4607
n01804921	4608
n02714315	4609
n07902520	4610
n02219486	4611
n09802445	4612
n02404186	4613
n07895237	4614
n12643113	4615
n10383237	4616
n03652932	4617
n03181293	4618
n12452256	4619
n03057021	4620
n12187663	4621
n12713358	4622
n10657556	4623
n10376523	4624
n04418357	4625
n10783539	4626
n03898633	4627
n04018155	4628
n12641007	4629
n04285803	4630
n02179012	4631
n03439814	4632
n02104882	4633
n07584423	4634
n11869351	4635
n10225931	4636
n03700963	4637
n12370549	4638
n03430091	4639
n02802544	4640
n04568841	4641
n04500060	4642
n02557591	4643
n01569566	4644
n02115913	4645
n10336904	4646
n04432662	4647
n02799323	4648
n08554440	4649
n07650792	4650
n04146614	4651
n04517408	4652
n01558765	4653
n09761068	4654
n03038281	4655
n03109693	4656
n10361525	4657
n03585073	4658
n09376526	4659
n09841515	4660
n02223266	4661
n02740533	4662
n02376791	4663
n07743544	4664
n02517938	4665
n12203896	4666
n02005399	4667
n02431785	4668
n12406304	4669
n07765728	4670
n12584715	4671
n01858441	4672
n12934479	4673
n01813088	4674
n04043733	4675
n12105125	4676
n04348359	4677
n03531281	4678
n02221820	4679
n11828577	4680
n04366116	4681
n12145477	4682
n02657368	4683
n11669921	4684
n03467984	4685
n10315561	4686
n02782093	4687
n12587803	4688
n02244173	4689
n12533190	4690
n12028424	4691
n04004475	4692
n12264786	4693
n03613294	4694
n11969166	4695
n03503997	4696
n11815491	4697
n01851731	4698
n02129604	4699
n01874928	4700
n01728920	4701
n01637932	4702
n02975212	4703
n07815588	4704
n04186455	4705
n04385079	4706
n10720964	4707
n02442845	4708
n04281375	4709
n02057731	4710
n00442115	4711
n09861946	4712
n12714949	4713
n07572957	4714
n03120491	4715
n02919414	4716
n10143725	4717
n10245639	4718
n02191773	4719
n04961691	4720
n12318965	4721
n01712008	4722
n12919403	4723
n12674685	4724
n07582277	4725
n01569836	4726
n03340723	4727
n10078806	4728
n10536416	4729
n02952109	4730
n03154446	4731
n01315330	4732
n04335693	4733
n11881189	4734
n07567390	4735
n02250822	4736
n03266749	4737
n03688192	4738
n01850192	4739
n02640626	4740
n01543632	4741
n09772746	4742
n04148054	4743
n02601344	4744
n08558770	4745
n10682953	4746
n11807108	4747
n02600298	4748
n01996585	4749
n02071294	4750
n10703692	4751
n03880531	4752
n02257284	4753
n03508101	4754
n11887750	4755
n07933799	4756
n03906590	4757
n03787523	4758
n12882945	4759
n02274259	4760
n01795545	4761
n03525693	4762
n10411551	4763
n02801823	4764
n07618871	4765
n04041544	4766
n07720442	4767
n03433877	4768
n11707229	4769
n03533486	4770
n03076411	4771
n03163973	4772
n12891093	4773
n12741586	4774
n11953038	4775
n02347744	4776
n03046921	4777
n07736527	4778
n07859284	4779
n02759963	4780
n04341414	4781
n02766320	4782
n03494706	4783
n03612965	4784
n01325060	4785
n07775197	4786
n03664675	4787
n03760310	4788
n02881193	4789
n04099175	4790
n04599235	4791
n12330891	4792
n04008634	4793
n02571167	4794
n01546921	4795
n01329186	4796
n02610664	4797
n01347583	4798
n03183080	4799
n02828884	4800
n10397001	4801
n01826364	4802
n02125689	4803
n02980625	4804
n09466678	4805
n12878784	4806
n10097842	4807
n02238235	4808
n01746952	4809
n01457852	4810
n05541509	4811
n15089803	4812
n03058603	4813
n09917345	4814
n01966377	4815
n13177884	4816
n01477875	4817
n10308066	4818
n13866144	4819
n11621281	4820
n02021050	4821
n03528523	4822
n04309049	4823
n01592084	4824
n04489008	4825
n03200701	4826
n12998815	4827
n02159955	4828
n10020890	4829
n11601333	4830
n12057211	4831
n01598588	4832
n01963571	4833
n03884778	4834
n04019696	4835
n02732827	4836
n09918248	4837
n02576223	4838
n12056217	4839
n07606278	4840
n10538629	4841
n02785648	4842
n12709349	4843
n01749582	4844
n10394786	4845
n10784544	4846
n12612170	4847
n10791221	4848
n04523525	4849
n03962525	4850
n03452741	4851
n04414476	4852
n07888465	4853
n04096733	4854
n02042472	4855
n02534559	4856
n01776192	4857
n15019030	4858
n07874780	4859
n01521756	4860
n03427296	4861
n03269203	4862
n03951971	4863
n04613696	4864
n03571439	4865
n04519536	4866
n04115456	4867
n03431570	4868
n02880940	4869
n04185071	4870
n01887474	4871
n10779897	4872
n12659356	4873
n09837459	4874
n12030908	4875
n02332755	4876
n03321419	4877
n09722658	4878
n12043444	4879
n11872658	4880
n02277268	4881
n02953673	4882
n04246855	4883
n07684600	4884
n02293352	4885
n02493509	4886
n01600657	4887
n02755529	4888
n04494204	4889
n02971691	4890
n13235503	4891
n12639910	4892
n09619168	4893
n12537569	4894
n02642107	4895
n12819728	4896
n07705931	4897
n12007766	4898
n03513137	4899
n10522759	4900
n03216828	4901
n02423589	4902
n04131208	4903
n12336727	4904
n03273740	4905
n12025220	4906
n03463381	4907
n12969927	4908
n02923129	4909
n12953206	4910
n02774152	4911
n12284821	4912
n01615458	4913
n07610295	4914
n04273064	4915
n03425595	4916
n03424862	4917
n01780696	4918
n12024445	4919
n01324610	4920
n01862399	4921
n12805561	4922
n03045074	4923
n03076708	4924
n12556656	4925
n07764486	4926
n03846100	4927
n04175147	4928
n12095020	4929
n02397529	4930
n10323752	4931
n02946348	4932
n03719053	4933
n10067305	4934
n01664065	4935
n10379376	4936
n03210683	4937
n03594277	4938
n03068181	4939
n02016816	4940
n07844604	4941
n07803310	4942
n03610682	4943
n07801091	4944
n01836673	4945
n07818277	4946
n04172342	4947
n03339296	4948
n03407369	4949
n03108853	4950
n03043958	4951
n13052670	4952
n04363991	4953
n03786194	4954
n03239259	4955
n01629276	4956
n03294604	4957
n10097477	4958
n04958634	4959
n09663248	4960
n03015254	4961
n01466257	4962
n12448361	4963
n03554460	4964
n02313709	4965
n04526964	4966
n03649909	4967
n03560430	4968
n11722036	4969
n12526178	4970
n01323599	4971
n03959701	4972
n12257570	4973
n01642943	4974
n07747811	4975
n10512201	4976
n03483637	4977
n04268142	4978
n02432704	4979
n10129825	4980
n03685307	4981
n00445351	4982
n01872772	4983
n01854838	4984
n02764614	4985
n02537085	4986
n03441112	4987
n01883920	4988
n01739647	4989
n12425281	4990
n10737103	4991
n03196598	4992
n12404729	4993
n02330245	4994
n02519148	4995
n01654863	4996
n12163035	4997
n10688356	4998
n09874862	4999
n07686021	5000
n10156629	5001
n02950632	5002
n02331309	5003
n12653218	5004
n11780148	5005
n10259348	5006
n09472597	5007
n02638596	5008
n03262519	5009
n09910374	5010
n12134836	5011
n11839568	5012
n12844409	5013
n04502197	5014
n02149420	5015
n10595647	5016
n01877134	5017
n12724942	5018
n02932523	5019
n02266421	5020
n01588431	5021
n02391994	5022
n03031422	5023
n01830042	5024
n04302988	5025
n03094503	5026
n03195485	5027
n01541386	5028
n01421807	5029
n02776205	5030
n09996481	5031
n11984144	5032
n10671736	5033
n02935387	5034
n02196344	5035
n03811295	5036
n02447021	5037
n03393912	5038
n04399537	5039
n04187233	5040
n12287642	5041
n03359566	5042
n04262678	5043
n02860847	5044
n10118844	5045
n02978205	5046
n10222497	5047
n13149970	5048
n11915214	5049
n09800469	5050
n03211789	5051
n01948446	5052
n03972524	5053
n02069701	5054
n01577458	5055
n04401680	5056
n04456472	5057
n12732009	5058
n04034262	5059
n07892512	5060
n02773037	5061
n10442417	5062
n04141975	5063
n02308139	5064
n11970101	5065
n03105810	5066
n01753959	5067
n12948053	5068
n03544360	5069
n03690938	5070
n12520406	5071
n12295796	5072
n09875979	5073
n03050655	5074
n11784497	5075
n12818346	5076
n13104059	5077
n04560292	5078
n03238131	5079
n01597737	5080
n03504723	5081
n12190410	5082
n11798270	5083
n03148324	5084
n02784998	5085
n02532028	5086
n07560331	5087
n03738241	5088
n12495670	5089
n10044682	5090
n12165170	5091
n02460009	5092
n03815482	5093
n12320806	5094
n07721678	5095
n03121897	5096
n02969886	5097
n00450700	5098
n01614343	5099
n12839574	5100
n01569060	5101
n10078131	5102
n01838038	5103
n07866723	5104
n03565565	5105
n02042046	5106
n01767661	5107
n02008796	5108
n02405101	5109
n02200198	5110
n12350758	5111
n02831998	5112
n12475774	5113
n10619642	5114
n02309841	5115
n03446832	5116
n02310334	5117
n01737472	5118
n02730568	5119
n07736813	5120
n03110669	5121
n04088797	5122
n07860208	5123
n04257223	5124
n02382204	5125
n04278605	5126
n10635788	5127
n02285179	5128
n11917407	5129
n03028079	5130
n04127904	5131
n12568186	5132
n04474035	5133
n12952165	5134
n03790230	5135
n10502329	5136
n03851787	5137
n02132136	5138
n07763483	5139
n09833441	5140
n02686379	5141
n02003037	5142
n02963302	5143
n04112252	5144
n02822220	5145
n10487182	5146
n04329477	5147
n03246454	5148
n10058411	5149
n02621258	5150
n02124623	5151
n07921834	5152
n01601694	5153
n01594372	5154
n03595860	5155
n03430551	5156
n02808440	5157
n02524202	5158
n02251067	5159
n12710917	5160
n09961198	5161
n11659627	5162
n15092751	5163
n03000247	5164
n02290340	5165
n02065407	5166
n02237424	5167
n02152991	5168
n02533545	5169
n01962788	5170
n02363005	5171
n12545635	5172
n01928517	5173
n11772879	5174
n10560637	5175
n02333546	5176
n13143285	5177
n02738031	5178
n04051825	5179
n11838413	5180
n13077033	5181
n09186592	5182
n10142747	5183
n03536568	5184
n03093792	5185
n04392526	5186
n10791115	5187
n01685439	5188
n10780632	5189
n00448232	5190
n00433802	5191
n12932706	5192
n03667829	5193
n09399592	5194
n03287733	5195
n04059157	5196
n02077923	5197
n02873623	5198
n12780563	5199
n03482523	5200
n09303008	5201
n02413131	5202
n09811712	5203
n02121808	5204
n09218641	5205
n10361296	5206
n04328329	5207
n07755707	5208
n10111903	5209
n03351262	5210
n02563949	5211
n09217230	5212
n03466162	5213
n02775039	5214
n12527738	5215
n07852919	5216
n04308583	5217
n12030654	5218
n03058949	5219
n01942177	5220
n01791107	5221
n02403920	5222
n11766046	5223
n02663211	5224
n03551084	5225
n12303462	5226
n04445952	5227
n11600372	5228
n03144156	5229
n11894558	5230
n01958038	5231
n07747055	5232
n12575322	5233
n01384687	5234
n01449712	5235
n02867715	5236
n04609651	5237
n02678384	5238
n07689217	5239
n03502509	5240
n01572328	5241
n03127024	5242
n13863186	5243
n12858150	5244
n02888569	5245
n02064000	5246
n02687992	5247
n10056103	5248
n01573074	5249
n10191613	5250
n02138441	5251
n02573704	5252
n04557308	5253
n12437513	5254
n03863262	5255
n12766595	5256
n01914830	5257
n02761392	5258
n04310018	5259
n12282933	5260
n02710429	5261
n07931280	5262
n04232312	5263
n12866968	5264
n02962200	5265
n15091669	5266
n09725229	5267
n04263760	5268
n01756508	5269
n02729837	5270
n02348788	5271
n12022054	5272
n06274921	5273
n09468604	5274
n02039171	5275
n12493426	5276
n03325288	5277
n12699301	5278
n02301452	5279
n12711984	5280
n10700201	5281
n07819303	5282
n09779280	5283
n11968931	5284
n10734394	5285
n03559999	5286
n09964411	5287
n12499163	5288
n01524359	5289
n12056758	5290
n03409591	5291
n10060175	5292
n01669654	5293
n12586298	5294
n04086794	5295
n03612814	5296
n13064111	5297
n07750449	5298
n03186818	5299
n09851165	5300
n03865371	5301
n01796340	5302
n01803078	5303
n09428293	5304
n09830629	5305
n03514129	5306
n02683558	5307
n02939866	5308
n10746931	5309
n02390454	5310
n03705379	5311
n12384375	5312
n07703889	5313
n00447540	5314
n03932670	5315
n10298647	5316
n02054502	5317
n01848976	5318
n02523110	5319
n11898775	5320
n10155849	5321
n04110955	5322
n03732114	5323
n09826605	5324
n12453186	5325
n04371979	5326
n01540233	5327
n10168183	5328
n11887119	5329
n12135898	5330
n01468712	5331
n04065464	5332
n04369025	5333
n07747951	5334
n12639736	5335
n04370048	5336
n02279637	5337
n12166128	5338
n02053083	5339
n09836160	5340
n02296276	5341
n02575325	5342
n12743823	5343
n04096066	5344
n04413151	5345
n01591697	5346
n12400489	5347
n02486410	5348
n09716047	5349
n04472726	5350
n02510455	5351
n02977058	5352
n12807409	5353
n10291110	5354
n04412097	5355
n10650162	5356
n04009552	5357
n03206718	5358
n10466918	5359
n02388143	5360
n01807496	5361
n01640846	5362
n03674440	5363
n04314522	5364
n03150232	5365
n04029734	5366
n04586932	5367
n11695085	5368
n09886403	5369
n02764779	5370
n10308732	5371
n04558478	5372
n10782791	5373
n07760153	5374
n03497657	5375
n02239528	5376
n02992032	5377
n03540595	5378
n09809538	5379
n12263038	5380
n03785142	5381
n11689197	5382
n04366367	5383
n10083823	5384
n00476389	5385
n11879054	5386
n10724372	5387
n03543394	5388
n03958752	5389
n01503061	5390
n07821260	5391
n11894327	5392
n12718483	5393
n02372952	5394
n12491017	5395
n07896994	5396
n12003167	5397
n01572489	5398
n10740868	5399
n07838233	5400
n12261571	5401
n11945367	5402
n02166567	5403
n12366675	5404
n03116530	5405
n03308152	5406
n03137579	5407
n12620196	5408
n12317296	5409
n07689003	5410
n02858304	5411
n03102859	5412
n01990007	5413
n03558176	5414
n12430471	5415
n02672831	5416
n01782516	5417
n11720643	5418
n03120198	5419
n12090890	5420
n04128837	5421
n07895435	5422
n07583197	5423
n04105438	5424
n02134084	5425
n04294212	5426
n11953610	5427
n01543383	5428
n12638218	5429
n02538216	5430
n12492106	5431
n03990474	5432
n02581642	5433
n04461696	5434
n04580493	5435
n02951843	5436
n12794135	5437
n03187595	5438
n01948573	5439
n03276179	5440
n03843555	5441
n07643026	5442
n10276045	5443
n04149374	5444
n12045860	5445
n07650903	5446
n09947127	5447
n12516828	5448
n09445008	5449
n04238321	5450
n01680264	5451
n02668393	5452
n02248368	5453
n02622955	5454
n00451370	5455
n11621029	5456
n02173373	5457
n04539053	5458
n02415253	5459
n02012849	5460
n03541696	5461
n12725940	5462
n09269472	5463
n12938667	5464
n07800091	5465
n13053608	5466
n12275317	5467
n09639919	5468
n12027658	5469
n12601805	5470
n02742322	5471
n01620414	5472
n09641002	5473
n12640607	5474
n02924116	5475
n12272432	5476
n02837789	5477
n12717072	5478
n12773142	5479
n03297735	5480
n10300303	5481
n03077741	5482
n10008123	5483
n11618525	5484
n13139055	5485
n07763290	5486
n02253913	5487
n09265620	5488
n01558594	5489
n11985739	5490
n04201297	5491
n03659292	5492
n12396924	5493
n03236735	5494
n04471632	5495
n02863536	5496
n03503718	5497
n12281788	5498
n02980441	5499
n15089258	5500
n02016956	5501
n12770529	5502
n08555333	5503
n09997622	5504
n03259505	5505
n02021795	5506
n02014941	5507
n03351434	5508
n02508213	5509
n03134853	5510
n12164656	5511
n11636204	5512
n02042180	5513
n03820950	5514
n02040505	5515
n03419014	5516
n01687665	5517
n12258885	5518
n01917611	5519
n03993403	5520
n03894379	5521
n07897600	5522
n11903671	5523
n02503127	5524
n02122580	5525
n02018027	5526
n04553703	5527
n12008749	5528
n11786539	5529
n01631175	5530
n00523513	5531
n04160036	5532
n01927159	5533
n12197601	5534
n01604330	5535
n07735294	5536
n01668436	5537
n02967782	5538
n04355821	5539
n04347754	5540
n12793494	5541
n01937909	5542
n06272803	5543
n02928608	5544
n04118021	5545
n04356925	5546
n02029706	5547
n11896722	5548
n04081281	5549
n10778148	5550
n02936714	5551
n04331277	5552
n03213014	5553
n01819115	5554
n15092650	5555
n12960863	5556
n10225219	5557
n01802159	5558
n02872529	5559
n07687211	5560
n03145843	5561
n02136285	5562
n01321230	5563
n04101701	5564
n10037080	5565
n13864153	5566
n10075299	5567
n12156819	5568
n03724417	5569
n03501520	5570
n04277493	5571
n03482405	5572
n03457902	5573
n03004824	5574
n02115335	5575
n07819480	5576
n04063373	5577
n03646916	5578
n11955153	5579
n03795976	5580
n01563746	5581
n09937056	5582
n13881644	5583
n04474187	5584
n09792969	5585
n03862676	5586
n10753061	5587
n01831712	5588
n04092168	5589
n02276355	5590
n07642933	5591
n05538625	5592
n10442232	5593
n10488309	5594
n09679170	5595
n12847374	5596
n03345837	5597
n04402580	5598
n04059298	5599
n10396106	5600
n02406533	5601
n12927494	5602
n02263378	5603
n12837259	5604
n12470092	5605
n12075830	5606
n12650556	5607
n07828987	5608
n11877646	5609
n09917593	5610
n02299039	5611
n02890940	5612
n10383816	5613
n01677366	5614
n01735189	5615
n02202287	5616
n02324045	5617
n02844714	5618
n09867154	5619
n07569873	5620
n04576971	5621
n03336575	5622
n02274024	5623
n12651611	5624
n07710952	5625
n02409508	5626
n12519563	5627
n07817315	5628
n07754684	5629
n12863234	5630
n03789603	5631
n11982939	5632
n01800195	5633
n03216199	5634
n11735977	5635
n01971280	5636
n13180534	5637
n03682487	5638
n04244997	5639
n03032811	5640
n07804323	5641
n03844550	5642
n04131015	5643
n07866571	5644
n12286197	5645
n09811852	5646
n04546855	5647
n04359335	5648
n02035402	5649
n07680932	5650
n02836607	5651
n04555291	5652
n04400499	5653
n13238375	5654
n02756098	5655
n04505470	5656
n04272054	5657
n10474645	5658
n02594250	5659
n03273913	5660
n12644902	5661
n03431745	5662
n02541687	5663
n15089645	5664
n02238887	5665
n01652297	5666
n06254669	5667
n03082979	5668
n12292877	5669
n04289027	5670
n01319467	5671
n02302459	5672
n12155773	5673
n03825080	5674
n09326662	5675
n04538552	5676
n12920521	5677
n03049457	5678
n01650167	5679
n01992773	5680
n01972131	5681
n10050880	5682
n07599998	5683
n11612923	5684
n10273064	5685
n03743902	5686
n04038727	5687
n07750586	5688
n01944390	5689
n03735637	5690
n02220055	5691
n01882125	5692
n03759954	5693
n03880323	5694
n03522863	5695
n04198797	5696
n02640857	5697
n02010453	5698
n02218134	5699
n04594218	5700
n12850906	5701
n10363573	5702
n03243625	5703
n07720277	5704
n12687957	5705
n02729965	5706
n07932841	5707
n03533654	5708
n03039947	5709
n02431122	5710
n01547832	5711
n03065708	5712
n02492660	5713
n03141702	5714
n12803226	5715
n11988893	5716
n00463246	5717
n03916470	5718
n10701180	5719
n10765679	5720
n10018861	5721
n12275489	5722
n12695144	5723
n11826569	5724
n12635744	5725
n10087736	5726
n12300840	5727
n03328201	5728
n02971940	5729
n02409202	5730
n12172481	5731
n02559383	5732
n01323355	5733
n03977966	5734
n10720453	5735
n04012482	5736
n01582220	5737
n03315644	5738
n02122725	5739
n13025647	5740
n12684379	5741
n12685431	5742
n12336333	5743
n02581957	5744
n02982232	5745
n12969670	5746
n07754894	5747
n12559518	5748
n02912065	5749
n12133151	5750
n03353281	5751
n03206405	5752
n11782036	5753
n12807773	5754
n03243218	5755
n13906936	5756
n02599958	5757
n02820210	5758
n02206856	5759
n03441345	5760
n07772935	5761
n04041069	5762
n07734017	5763
n03961939	5764
n12658846	5765
n02079389	5766
n11783162	5767
n02266269	5768
n07612996	5769
n02844307	5770
n07767847	5771
n07726095	5772
n04191595	5773
n02328942	5774
n05453657	5775
n09834699	5776
n03657239	5777
n10306279	5778
n07844867	5779
n03061674	5780
n12857204	5781
n11869689	5782
n13206817	5783
n01684578	5784
n12203529	5785
n02986348	5786
n10289039	5787
n02797295	5788
n12283542	5789
n02914991	5790
n03584829	5791
n11811473	5792
n04099429	5793
n12345280	5794
n12448136	5795
n03622058	5796
n03501152	5797
n04085873	5798
n12412355	5799
n02081060	5800
n04172107	5801
n13137225	5802
n04360501	5803
n11658331	5804
n01560636	5805
n10055297	5806
n12570703	5807
n07821107	5808
n04585745	5809
n07803545	5810
n01621635	5811
n04553389	5812
n03409393	5813
n01946277	5814
n01933478	5815
n02799897	5816
n07804152	5817
n12099342	5818
n02190166	5819
n07601809	5820
n03429771	5821
n03639497	5822
n10514121	5823
n09933098	5824
n03091374	5825
n12721477	5826
n04093625	5827
n12638556	5828
n12449784	5829
n03391301	5830
n02653497	5831
n12734215	5832
n09831962	5833
n12713063	5834
n11944196	5835
n03926148	5836
n03782190	5837
n02760429	5838
n11981475	5839
n01691951	5840
n02097047	5841
n02916350	5842
n03709644	5843
n04051549	5844
n01983048	5845
n02635580	5846
n11618861	5847
n11691046	5848
n01577659	5849
n03815278	5850
n02084732	5851
n03786313	5852
n02524524	5853
n04127633	5854
n07567707	5855
n02432511	5856
n10490421	5857
n07755411	5858
n10395073	5859
n10784922	5860
n12770892	5861
n10009671	5862
n07927512	5863
n11923637	5864
n12881105	5865
n10147262	5866
n02295064	5867
n03341297	5868
n10366966	5869
n02050004	5870
n04079244	5871
n03663433	5872
n01886756	5873
n12664187	5874
n12253229	5875
n03518631	5876
n12642200	5877
n07810531	5878
n10296444	5879
n04219424	5880
n12126360	5881
n04008385	5882
n02450829	5883
n10212780	5884
n04391838	5885
n10191388	5886
n07820036	5887
n02241569	5888
n10198437	5889
n03683708	5890
n12166424	5891
n10314182	5892
n10563711	5893
n03624134	5894
n03613592	5895
n01569262	5896
n04037443	5897
n10431625	5898
n07598734	5899
n12719684	5900
n07713395	5901
n12164363	5902
n01845477	5903
n02652132	5904
n02098550	5905
n10482921	5906
n04019101	5907
n03233905	5908
n07609840	5909
n10668450	5910
n12496949	5911
n07954211	5912
n01909422	5913
n13063269	5914
n02801525	5915
n01491661	5916
n13109733	5917
n11552806	5918
n01574390	5919
n02604157	5920
n07882886	5921
n09933020	5922
n03500557	5923
n10361060	5924
n09913329	5925
n03106722	5926
n02191273	5927
n11596108	5928
n12832315	5929
n04146050	5930
n02433546	5931
n10698368	5932
n07693972	5933
n12494794	5934
n09620794	5935
n01477525	5936
n10761326	5937
n01978930	5938
n04392764	5939
n04235291	5940
n02677028	5941
n04296562	5942
n01955933	5943
n00448466	5944
n02076196	5945
n12646397	5946
n10284965	5947
n03646809	5948
n10717055	5949
n02693246	5950
n13221529	5951
n12631331	5952
n01770081	5953
n13177529	5954
n01318053	5955
n12801072	5956
n12572546	5957
n01319187	5958
n10513509	5959
n10753182	5960
n12687698	5961
n07750299	5962
n09902353	5963
n02386496	5964
n04560113	5965
n03330947	5966
n01471682	5967
n07695965	5968
n11808721	5969
n01723579	5970
n12924623	5971
n03748162	5972
n02024185	5973
n13188096	5974
n01526521	5975
n03819595	5976
n02379430	5977
n07721942	5978
n11771539	5979
n02167820	5980
n02530421	5981
n13068917	5982
n02287004	5983
n11948264	5984
n04541662	5985
n02171869	5986
n10450303	5987
n15091473	5988
n02037110	5989
n12460697	5990
n07921615	5991
n02446206	5992
n03077616	5993
n11897466	5994
n09376198	5995
n12582231	5996
n11899921	5997
n03899612	5998
n07901587	5999
n01395254	6000
n10404998	6001
n02152740	6002
n03710721	6003
n12344283	6004
n13194572	6005
n11767354	6006
n04467099	6007
n07619881	6008
n07709333	6009
n04066476	6010
n03405725	6011
n03251766	6012
n03595614	6013
n01649170	6014
n12558425	6015
n03563967	6016
n02389346	6017
n02890804	6018
n07735179	6019
n03118346	6020
n09945603	6021
n10691937	6022
n07847453	6023
n02121620	6024
n10620758	6025
n03664943	6026
n07710616	6027
n11788727	6028
n12395463	6029
n08596076	6030
n03578055	6031
n04330340	6032
n00433661	6033
n07688412	6034
n12715195	6035
n10369955	6036
n09238926	6037
n03272383	6038
n02407959	6039
n12953484	6040
n02429456	6041
n02114100	6042
n12441183	6043
n11807696	6044
n01575401	6045
n04151940	6046
n01883513	6047
n04026053	6048
n00449517	6049
n03326948	6050
n12083591	6051
n02262178	6052
n01821869	6053
n12279458	6054
n03424630	6055
n02270011	6056
n04405907	6057
n10527334	6058
n07863229	6059
n03321103	6060
n10613996	6061
n01661091	6062
n07605474	6063
n02276078	6064
n09696585	6065
n12726902	6066
n02227966	6067
n03789946	6068
n02691156	6069
n12932966	6070
n09976429	6071
n12335800	6072
n11656123	6073
n09304750	6074
n10718131	6075
n02177972	6076
n01914609	6077
n12546962	6078
n02141713	6079
n09930257	6080
n07771539	6081
n04010927	6082
n09613191	6083
n11905749	6084
n12785724	6085
n04606574	6086
n10140783	6087
n10403876	6088
n09764201	6089
n04508163	6090
n03318983	6091
n03766322	6092
n10108089	6093
n02686568	6094
n02587300	6095
n04603872	6096
n11902709	6097
n02066707	6098
n04417809	6099
n01322685	6100
n02371344	6101
n07560193	6102
n10588357	6103
n03244388	6104
n12364604	6105
n07728804	6106
n13108662	6107
n09993252	6108
n03739518	6109
n12920204	6110
n10703336	6111
n03045337	6112
n07805731	6113
n03619396	6114
n11979715	6115
n01496331	6116
n10386984	6117
n12774641	6118
n01527617	6119
n04413419	6120
n03600977	6121
n03905730	6122
n02855089	6123
n04186051	6124
n03438257	6125
n02619165	6126
n10012484	6127
n02509515	6128
n15089472	6129
n12540250	6130
n07757602	6131
n12934036	6132
n09807075	6133
n12651821	6134
n07719213	6135
n01975687	6136
n04065272	6137
n13032381	6138
n04294426	6139
n10333165	6140
n07751451	6141
n12943443	6142
n12523475	6143
n03049066	6144
n02170400	6145
n11872146	6146
n03566329	6147
n03098806	6148
n10420277	6149
n07739506	6150
n01827403	6151
n12593122	6152
n00021939	6153
n02943241	6154
n02113335	6155
n03996145	6156
n11818636	6157
n10237196	6158
n03620052	6159
n07745197	6160
n10365514	6161
n01906749	6162
n12194613	6163
n02032480	6164
n12180885	6165
n02269196	6166
n02083346	6167
n02513560	6168
n07803408	6169
n12823859	6170
n03670208	6171
n04538249	6172
n11714382	6173
n12649065	6174
n01448291	6175
n10305635	6176
n04038440	6177
n02137549	6178
n01539573	6179
n03092656	6180
n12697152	6181
n10521662	6182
n03061505	6183
n02863750	6184
n02512938	6185
n11916467	6186
n12807624	6187
n12333771	6188
n02605316	6189
n00433458	6190
n02841315	6191
n07817024	6192
n02416519	6193
n01623880	6194
n11888800	6195
n02553028	6196
n09923418	6197
n02319095	6198
n02364520	6199
n03501288	6200
n03187751	6201
n02539573	6202
n02961035	6203
n10252354	6204
n04370288	6205
n10679174	6206
n04552348	6207
n04536153	6208
n02328820	6209
n11729478	6210
n09230041	6211
n02970849	6212
n07597145	6213
n10622053	6214
n03912218	6215
n02777100	6216
n03467517	6217
n10506915	6218
n04108268	6219
n01816140	6220
n02390101	6221
n04070727	6222
n02118333	6223
n13915999	6224
n09899289	6225
n12189429	6226
n13192625	6227
n02431337	6228
n02580336	6229
n04123567	6230
n03739693	6231
n12430675	6232
n03947888	6233
n03442756	6234
n03102654	6235
n01825930	6236
n03762982	6237
n04517823	6238
n02181235	6239
n01324799	6240
n01651059	6241
n02062430	6242
n12664005	6243
n02538010	6244
n04474466	6245
n02794156	6246
n12108432	6247
n03770085	6248
n03472796	6249
n11552976	6250
n04543772	6251
n04371774	6252
n02084861	6253
n03088580	6254
n04411264	6255
n03358172	6256
n11940006	6257
n10345659	6258
n12868880	6259
n07743902	6260
n12942395	6261
n03209666	6262
n03474167	6263
n04293258	6264
n13039349	6265
n04404997	6266
n02071636	6267
n03096960	6268
n01795088	6269
n10763620	6270
n10609198	6271
n02310000	6272
n09445289	6273
n02351870	6274
n04402746	6275
n04307419	6276
n12167075	6277
n09853645	6278
n10665302	6279
n13111174	6280
n02778669	6281
n10782940	6282
n12157769	6283
n11693981	6284
n02435853	6285
n11890022	6286
n03916720	6287
n12256112	6288
n03663531	6289
n08571275	6290
n10562968	6291
n10702167	6292
n02933990	6293
n02174659	6294
n07561590	6295
n12433178	6296
n12956170	6297
n11784126	6298
n02447366	6299
n01789386	6300
n02822399	6301
n00445055	6302
n01632047	6303
n11931918	6304
n12794367	6305
n13060190	6306
n07818572	6307
n04613158	6308
n01622779	6309
n03225777	6310
n12407890	6311
n09988063	6312
n03982430	6313
n00006484	6314
n03322570	6315
n11989869	6316
n03405595	6317
n02561661	6318
n10418735	6319
n01528654	6320
n01614038	6321
n13874073	6322
n11956850	6323
n01641739	6324
n12197359	6325
n02486261	6326
n03483316	6327
n11862835	6328
n02932891	6329
n03764276	6330
n10213034	6331
n02244515	6332
n07614500	6333
n11900569	6334
n02655523	6335
n03494278	6336
n11709205	6337
n10154601	6338
n12305089	6339
n07826930	6340
n04264914	6341
n02058747	6342
n12705978	6343
n02241799	6344
n03953416	6345
n04600912	6346
n01804478	6347
n03854065	6348
n07764630	6349
n02910864	6350
n02073831	6351
n02767956	6352
n04502502	6353
n02204722	6354
n02065726	6355
n02891788	6356
n03054605	6357
n03481172	6358
n12921868	6359
n04072960	6360
n02889996	6361
n12449934	6362
n12607456	6363
n12669803	6364
n04444749	6365
n03351151	6366
n02393580	6367
n03804744	6368
n02446352	6369
n07770571	6370
n01738601	6371
n03284743	6372
n02023341	6373
n07935504	6374
n02456275	6375
n12155583	6376
n10742546	6377
n03125870	6378
n02302620	6379
n04238128	6380
n01665541	6381
n04603729	6382
n12113657	6383
n10377021	6384
n10568200	6385
n13067532	6386
n02220225	6387
n10462860	6388
n07812913	6389
n02374149	6390
n01698434	6391
n04196803	6392
n01556182	6393
n12400720	6394
n02484975	6395
n04176528	6396
n00478262	6397
n02339922	6398
n13054560	6399
n11773628	6400
n02537319	6401
n01889074	6402
n10294139	6403
n10219879	6404
n12683407	6405
n04190052	6406
n12334891	6407
n03906997	6408
n09700964	6409
n03489162	6410
n02051845	6411
n03240140	6412
n01916187	6413
n10451858	6414
n02346627	6415
n10206173	6416
n03456665	6417
n09348460	6418
n12242409	6419
n02713218	6420
n04422875	6421
n04347519	6422
n03119510	6423
n02453611	6424
n07881800	6425
n02965783	6426
n01688961	6427
n11877860	6428
n10195593	6429
n11995092	6430
n04187547	6431
n04591713	6432
n02152881	6433
n07901457	6434
n02920369	6435
n03292362	6436
n02872752	6437
n09361517	6438
n09903936	6439
n02733524	6440
n03880129	6441
n09724533	6442
n01824575	6443
n00443231	6444
n02129165	6445
n10417682	6446
n12261808	6447
n11898639	6448
n01852861	6449
n02950482	6450
n10717196	6451
n02034129	6452
n02208498	6453
n04162706	6454
n01589286	6455
n02562796	6456
n10299875	6457
n02598573	6458
n01648139	6459
n07808904	6460
n02406749	6461
n03736970	6462
n03632963	6463
n01810700	6464
n04161358	6465
n03956331	6466
n10221312	6467
n01741562	6468
n12793284	6469
n10792335	6470
n03478589	6471
n02290664	6472
n10700105	6473
n09702134	6474
n02237581	6475
n02614978	6476
n02575590	6477
n07902937	6478
n02166826	6479
n13083023	6480
n13065514	6481
n10540656	6482
n03899768	6483
n01806567	6484
n01950731	6485
n07863374	6486
n07835051	6487
n02000954	6488
n15091304	6489
n02804252	6490
n13195761	6491
n02649218	6492
n04468005	6493
n02620578	6494
n03101156	6495
n01823013	6496
n10109662	6497
n01598988	6498
n11614250	6499
n04067472	6500
n02035210	6501
n01699040	6502
n12322501	6503
n03522634	6504
n10648237	6505
n12056601	6506
n07858595	6507
n03695122	6508
n02218371	6509
n12373739	6510
n12711817	6511
n12765115	6512
n07759816	6513
n02358091	6514
n01985128	6515
n13024012	6516
n12221522	6517
n03314378	6518
n12129738	6519
n01576695	6520
n11807525	6521
n04400289	6522
n03038685	6523
n03512147	6524
n12476510	6525
n03206908	6526
n01579578	6527
n12645174	6528
n03883664	6529
n03751065	6530
n09772330	6531
n10342180	6532
n03062651	6533
n03429914	6534
n02770830	6535
n11661372	6536
n12877244	6537
n12024176	6538
n13212025	6539
n01848648	6540
n04598582	6541
n02068206	6542
n04446844	6543
n12154773	6544
n03333349	6545
n12168565	6546
n01751036	6547
n02047614	6548
n01887896	6549
n03790512	6550
n04519153	6551
n02828427	6552
n12366870	6553
n11920998	6554
